Reference, Value, Footprint, Datasheet, Distributor, OrderNr
"U1","XC7S50","myfootprints:FTGB196",""
"IC1","EN5329QI","myfootprints:EN5339QI","https://www.mouser.com/ds/2/612/EN5329QI_08326-1098924.pdf"
"C2","1µ","Capacitor_SMD:C_0805_2012Metric","~"
"C1","22µ","Capacitor_SMD:C_1206_3216Metric","~"
"C5","22µ","Capacitor_SMD:C_0603_1608Metric","~"
"C4","22µ","Capacitor_SMD:C_0603_1608Metric","~"
"R1","348k","Resistor_SMD:R_0603_1608Metric","~"
"R2","523k","Resistor_SMD:R_0603_1608Metric","~"
"C3","8.2p","Capacitor_SMD:C_0603_1608Metric","~"
"U3","ATECC608A","Package_DFN_QFN:DFN-8-1EP_3x2mm_P0.5mm_EP1.3x1.5mm",""
"R9","1k5","Resistor_SMD:R_0402_1005Metric","~"
"R10","1k5","Resistor_SMD:R_0402_1005Metric","~"
"C8","100n","Capacitor_SMD:C_0402_1005Metric","~"
"R4","10k","Resistor_SMD:R_0402_1005Metric","~"
"R5","10k","Resistor_SMD:R_0402_1005Metric","~"
"R6","4k7","Resistor_SMD:R_0402_1005Metric","~"
"R7","4k7","Resistor_SMD:R_0402_1005Metric","~"
"R3","33R","Resistor_SMD:R_0402_1005Metric","~"
"R8","1k","Resistor_SMD:R_0402_1005Metric","~"
"U2","EP5388QI","myfootprints:EP5388QI",""
"C6","4µ7","Capacitor_SMD:C_0603_1608Metric","~"
"C7","47µ","Capacitor_SMD:C_1206_3216Metric","~"
"U4","S25FL128SAGN","myfootprints:WSON8-8x6",""
"C9","100n","Capacitor_SMD:C_0402_1005Metric","~"
"C15","47µ","Capacitor_SMD:C_0805_2012Metric","~"
"C12","47µ","Capacitor_SMD:C_0805_2012Metric","~"
"C16","4.7µ","Capacitor_SMD:C_0805_2012Metric","~"
"C20","100n","Capacitor_SMD:C_0402_1005Metric","~"
"C24","100n","Capacitor_SMD:C_0402_1005Metric","~"
"C27","100n","Capacitor_SMD:C_0402_1005Metric","~"
"C13","47µ","Capacitor_SMD:C_0805_2012Metric","~"
"C17","4.7µ","Capacitor_SMD:C_0805_2012Metric","~"
"C21","100n","Capacitor_SMD:C_0402_1005Metric","~"
"C25","100n","Capacitor_SMD:C_0402_1005Metric","~"
"C28","100n","Capacitor_SMD:C_0402_1005Metric","~"
"C30","100n","Capacitor_SMD:C_0402_1005Metric","~"
"C32","100n","Capacitor_SMD:C_0402_1005Metric","~"
"C29","100n","Capacitor_SMD:C_0402_1005Metric","~"
"C26","100n","Capacitor_SMD:C_0402_1005Metric","~"
"C33","100n","Capacitor_SMD:C_0402_1005Metric","~"
"C31","100n","Capacitor_SMD:C_0402_1005Metric","~"
"C23","100n","Capacitor_SMD:C_0402_1005Metric","~"
"C19","4.7µ","Capacitor_SMD:C_0805_2012Metric","~"
"C35","100n","Capacitor_SMD:C_0402_1005Metric","~"
"C18","4.7µ","Capacitor_SMD:C_0805_2012Metric","~"
"C14","4.7µ","Capacitor_SMD:C_0805_2012Metric","~"
"C34","100n","Capacitor_SMD:C_0402_1005Metric","~"
"C36","100n","Capacitor_SMD:C_0402_1005Metric","~"
"C37","100n","Capacitor_SMD:C_0402_1005Metric","~"
"C10","47µ","Capacitor_SMD:C_0805_2012Metric","~"
"C41","100n","Capacitor_SMD:C_0402_1005Metric","~"
"C42","100n","Capacitor_SMD:C_0402_1005Metric","~"
"C11","100n","Capacitor_SMD:C_0402_1005Metric","~"
"C22","1µ","Capacitor_SMD:C_0805_2012Metric","~"
"C43","100n","Capacitor_SMD:C_0402_1005Metric","~"
"C44","100n","Capacitor_SMD:C_0402_1005Metric","~"
"C38","100n","Capacitor_SMD:C_0402_1005Metric","~"
"X1","XO32-12MHz","Oscillator:Oscillator_SMD_EuroQuartz_XO32-4Pin_3.2x2.5mm","http://cdn-reichelt.de/documents/datenblatt/B400/XO32.pdf"
"C39","100n","Capacitor_SMD:C_0402_1005Metric","~"
"R11","33R","Resistor_SMD:R_0402_1005Metric","~"
"U5","MPCIE-Socket","mpcie:mpcie-half-card","","NA",""
"R12","330","Resistor_SMD:R_0402_1005Metric","~"
"R15","2k4","Resistor_SMD:R_0402_1005Metric","~"
"R14","4k7","Resistor_SMD:R_0402_1005Metric","~"
"R16","4k7","Resistor_SMD:R_0402_1005Metric","~"
"R13","330","Resistor_SMD:R_0402_1005Metric","~"
"D1","LED","LED_SMD:LED_0603_1608Metric","~"
"R17","4k7","Resistor_SMD:R_0402_1005Metric","~"
"D2","LED-LOCK","LED_SMD:LED_0603_1608Metric","~","D","732-4978-1-ND"
"R18","680","Resistor_SMD:R_0402_1005Metric","~"
"J1","DNP","myfootprints:PinHeader_2x10_P1.27mm_Vertical","~"
"D3","LED-USER","LED_SMD:LED_0603_1608Metric","~","D","732-4978-1-ND"
"R21","680","Resistor_SMD:R_0402_1005Metric","~"
"D4","LED-3V3","LED_SMD:LED_0603_1608Metric","~","D","732-4978-1-ND"
"R22","680","Resistor_SMD:R_0402_1005Metric","~"
"R20","0","Resistor_SMD:R_0402_1005Metric","~"
"R19","DNP","Resistor_SMD:R_0402_1005Metric","~"
