EESchema Schematic File Version 4
LIBS:iccfpga-cache
EELAYER 29 0
EELAYER END
$Descr A3 16535 11693
encoding utf-8
Sheet 1 1
Title ""
Date ""
Rev ""
Comp ""
Comment1 ""
Comment2 ""
Comment3 ""
Comment4 ""
$EndDescr
$Comp
L mylib:XC7S50 U1
U 1 1 5C95EA9D
P 5250 5850
F 0 "U1" H 5250 6115 50  0000 C CNN
F 1 "XC7S50" H 5250 6024 50  0000 C CNN
F 2 "myfootprints:FTGB196" H 4450 5850 50  0001 C CNN
F 3 "" H 4450 5850 50  0001 C CNN
	1    5250 5850
	1    0    0    -1  
$EndComp
$Comp
L mylib:XC7S50 U1
U 3 1 5C967986
P 5950 1650
F 0 "U1" H 7278 546 50  0000 L CNN
F 1 "XC7S50" H 7278 455 50  0000 L CNN
F 2 "myfootprints:FTGB196" H 5150 1650 50  0001 C CNN
F 3 "" H 5150 1650 50  0001 C CNN
	3    5950 1650
	1    0    0    -1  
$EndComp
$Comp
L mylib:XC7S50 U1
U 4 1 5C96BD50
P 8050 1700
F 0 "U1" H 9518 596 50  0000 L CNN
F 1 "XC7S50" H 9518 505 50  0000 L CNN
F 2 "myfootprints:FTGB196" H 7250 1700 50  0001 C CNN
F 3 "" H 7250 1700 50  0001 C CNN
	4    8050 1700
	1    0    0    -1  
$EndComp
$Comp
L mylib:XC7S50 U1
U 5 1 5C96FF75
P 1550 4950
F 0 "U1" H 2878 3846 50  0000 L CNN
F 1 "XC7S50" H 2878 3755 50  0000 L CNN
F 2 "myfootprints:FTGB196" H 750 4950 50  0001 C CNN
F 3 "" H 750 4950 50  0001 C CNN
	5    1550 4950
	1    0    0    -1  
$EndComp
$Comp
L mylib:XC7S50 U1
U 6 1 5C97648D
P 15100 6950
F 0 "U1" H 15100 7215 50  0000 C CNN
F 1 "XC7S50" H 15100 7124 50  0000 C CNN
F 2 "myfootprints:FTGB196" H 14300 6950 50  0001 C CNN
F 3 "" H 14300 6950 50  0001 C CNN
	6    15100 6950
	1    0    0    -1  
$EndComp
$Comp
L mylib:XC7S50 U1
U 7 1 5C979CC5
P 13000 6750
F 0 "U1" H 13528 5446 50  0000 L CNN
F 1 "XC7S50" H 13528 5355 50  0000 L CNN
F 2 "myfootprints:FTGB196" H 12200 6750 50  0001 C CNN
F 3 "" H 12200 6750 50  0001 C CNN
	7    13000 6750
	1    0    0    -1  
$EndComp
$Comp
L power:GND #PWR0101
U 1 1 5C9A39BF
P 14650 9450
F 0 "#PWR0101" H 14650 9200 50  0001 C CNN
F 1 "GND" H 14655 9277 50  0000 C CNN
F 2 "" H 14650 9450 50  0001 C CNN
F 3 "" H 14650 9450 50  0001 C CNN
	1    14650 9450
	1    0    0    -1  
$EndComp
Wire Wire Line
	14650 9450 14650 9350
Wire Wire Line
	14650 6950 14700 6950
Wire Wire Line
	14700 7050 14650 7050
Connection ~ 14650 7050
Wire Wire Line
	14650 7050 14650 6950
Wire Wire Line
	14700 7150 14650 7150
Connection ~ 14650 7150
Wire Wire Line
	14650 7150 14650 7050
Wire Wire Line
	14700 7250 14650 7250
Connection ~ 14650 7250
Wire Wire Line
	14650 7250 14650 7150
Wire Wire Line
	14700 7350 14650 7350
Connection ~ 14650 7350
Wire Wire Line
	14650 7350 14650 7250
Wire Wire Line
	14700 7450 14650 7450
Connection ~ 14650 7450
Wire Wire Line
	14650 7450 14650 7350
Wire Wire Line
	14700 7550 14650 7550
Connection ~ 14650 7550
Wire Wire Line
	14650 7550 14650 7450
Wire Wire Line
	14700 7650 14650 7650
Connection ~ 14650 7650
Wire Wire Line
	14650 7650 14650 7550
Wire Wire Line
	14700 7750 14650 7750
Connection ~ 14650 7750
Wire Wire Line
	14650 7750 14650 7650
Wire Wire Line
	14700 7850 14650 7850
Connection ~ 14650 7850
Wire Wire Line
	14650 7850 14650 7750
Wire Wire Line
	14700 7950 14650 7950
Connection ~ 14650 7950
Wire Wire Line
	14650 7950 14650 7850
Wire Wire Line
	14700 8050 14650 8050
Connection ~ 14650 8050
Wire Wire Line
	14650 8050 14650 7950
Wire Wire Line
	14700 8150 14650 8150
Connection ~ 14650 8150
Wire Wire Line
	14650 8150 14650 8050
Wire Wire Line
	14700 8250 14650 8250
Connection ~ 14650 8250
Wire Wire Line
	14650 8250 14650 8150
Wire Wire Line
	14700 8350 14650 8350
Connection ~ 14650 8350
Wire Wire Line
	14650 8350 14650 8250
Wire Wire Line
	14700 8450 14650 8450
Connection ~ 14650 8450
Wire Wire Line
	14650 8450 14650 8350
Wire Wire Line
	14700 8550 14650 8550
Connection ~ 14650 8550
Wire Wire Line
	14650 8550 14650 8450
Wire Wire Line
	14700 8650 14650 8650
Connection ~ 14650 8650
Wire Wire Line
	14650 8650 14650 8550
Wire Wire Line
	14700 8750 14650 8750
Connection ~ 14650 8750
Wire Wire Line
	14650 8750 14650 8650
Wire Wire Line
	14700 8850 14650 8850
Connection ~ 14650 8850
Wire Wire Line
	14650 8850 14650 8750
Wire Wire Line
	14700 8950 14650 8950
Connection ~ 14650 8950
Wire Wire Line
	14650 8950 14650 8850
Wire Wire Line
	14700 9050 14650 9050
Connection ~ 14650 9050
Wire Wire Line
	14650 9050 14650 8950
Wire Wire Line
	14700 9150 14650 9150
Connection ~ 14650 9150
Wire Wire Line
	14650 9150 14650 9050
Wire Wire Line
	14700 9250 14650 9250
Connection ~ 14650 9250
Wire Wire Line
	14650 9250 14650 9150
Wire Wire Line
	14700 9350 14650 9350
Connection ~ 14650 9350
Wire Wire Line
	14650 9350 14650 9250
$Comp
L power:GND #PWR0102
U 1 1 5C9BD846
P 15550 9450
F 0 "#PWR0102" H 15550 9200 50  0001 C CNN
F 1 "GND" H 15555 9277 50  0000 C CNN
F 2 "" H 15550 9450 50  0001 C CNN
F 3 "" H 15550 9450 50  0001 C CNN
	1    15550 9450
	1    0    0    -1  
$EndComp
Wire Wire Line
	15550 9450 15550 9350
Wire Wire Line
	15550 6950 15500 6950
Wire Wire Line
	15500 7050 15550 7050
Connection ~ 15550 7050
Wire Wire Line
	15550 7050 15550 6950
Wire Wire Line
	15500 7150 15550 7150
Connection ~ 15550 7150
Wire Wire Line
	15550 7150 15550 7050
Wire Wire Line
	15500 7250 15550 7250
Connection ~ 15550 7250
Wire Wire Line
	15550 7250 15550 7150
Wire Wire Line
	15500 7350 15550 7350
Connection ~ 15550 7350
Wire Wire Line
	15550 7350 15550 7250
Wire Wire Line
	15500 7450 15550 7450
Connection ~ 15550 7450
Wire Wire Line
	15550 7450 15550 7350
Wire Wire Line
	15500 7550 15550 7550
Connection ~ 15550 7550
Wire Wire Line
	15550 7550 15550 7450
Wire Wire Line
	15500 7650 15550 7650
Connection ~ 15550 7650
Wire Wire Line
	15550 7650 15550 7550
Wire Wire Line
	15500 7750 15550 7750
Connection ~ 15550 7750
Wire Wire Line
	15550 7750 15550 7650
Wire Wire Line
	15500 7850 15550 7850
Connection ~ 15550 7850
Wire Wire Line
	15550 7850 15550 7750
Wire Wire Line
	15500 7950 15550 7950
Connection ~ 15550 7950
Wire Wire Line
	15550 7950 15550 7850
Wire Wire Line
	15500 8050 15550 8050
Connection ~ 15550 8050
Wire Wire Line
	15550 8050 15550 7950
Wire Wire Line
	15500 8150 15550 8150
Connection ~ 15550 8150
Wire Wire Line
	15550 8150 15550 8050
Wire Wire Line
	15500 8250 15550 8250
Connection ~ 15550 8250
Wire Wire Line
	15550 8250 15550 8150
Wire Wire Line
	15500 8350 15550 8350
Connection ~ 15550 8350
Wire Wire Line
	15550 8350 15550 8250
Wire Wire Line
	15500 8450 15550 8450
Connection ~ 15550 8450
Wire Wire Line
	15550 8450 15550 8350
Wire Wire Line
	15500 8550 15550 8550
Connection ~ 15550 8550
Wire Wire Line
	15550 8550 15550 8450
Wire Wire Line
	15500 8650 15550 8650
Connection ~ 15550 8650
Wire Wire Line
	15550 8650 15550 8550
Wire Wire Line
	15500 8750 15550 8750
Connection ~ 15550 8750
Wire Wire Line
	15550 8750 15550 8650
Wire Wire Line
	15500 8850 15550 8850
Connection ~ 15550 8850
Wire Wire Line
	15550 8850 15550 8750
Wire Wire Line
	15500 8950 15550 8950
Connection ~ 15550 8950
Wire Wire Line
	15550 8950 15550 8850
Wire Wire Line
	15500 9050 15550 9050
Connection ~ 15550 9050
Wire Wire Line
	15550 9050 15550 8950
Wire Wire Line
	15500 9150 15550 9150
Connection ~ 15550 9150
Wire Wire Line
	15550 9150 15550 9050
Wire Wire Line
	15500 9250 15550 9250
Connection ~ 15550 9250
Wire Wire Line
	15550 9250 15550 9150
Wire Wire Line
	15500 9350 15550 9350
Connection ~ 15550 9350
Wire Wire Line
	15550 9350 15550 9250
$Comp
L EN5329QI:EN5329QI IC1
U 1 1 5CA411A1
P 3850 10100
F 0 "IC1" H 4600 8635 50  0000 C CNN
F 1 "EN5329QI" H 4600 8726 50  0000 C CNN
F 2 "myfootprints:EN5339QI" H 5200 10200 50  0001 L CNN
F 3 "https://www.mouser.com/ds/2/612/EN5329QI_08326-1098924.pdf" H 5200 10100 50  0001 L CNN
	1    3850 10100
	-1   0    0    1   
$EndComp
Wire Wire Line
	3850 9000 3950 9000
Wire Wire Line
	3950 9000 3950 9100
Wire Wire Line
	3950 9200 3850 9200
Wire Wire Line
	3950 9200 4100 9200
Connection ~ 3950 9200
Wire Wire Line
	3850 9100 3950 9100
Connection ~ 3950 9100
Wire Wire Line
	3950 9100 3950 9200
$Comp
L power:+3V3 #PWR0103
U 1 1 5CA4FF03
P 4100 9200
F 0 "#PWR0103" H 4100 9050 50  0001 C CNN
F 1 "+3V3" V 4115 9328 50  0000 L CNN
F 2 "" H 4100 9200 50  0001 C CNN
F 3 "" H 4100 9200 50  0001 C CNN
	1    4100 9200
	0    1    1    0   
$EndComp
Wire Wire Line
	3850 9300 3950 9300
Wire Wire Line
	3950 9300 3950 9400
Wire Wire Line
	3850 9400 3950 9400
Connection ~ 3950 9400
Wire Wire Line
	3950 9400 3950 9900
Wire Wire Line
	3850 9900 3950 9900
Connection ~ 3950 9900
Wire Wire Line
	3950 9900 3950 10000
Wire Wire Line
	3850 10000 3950 10000
Connection ~ 3950 10000
Wire Wire Line
	3950 10000 3950 10650
$Comp
L power:GND #PWR0104
U 1 1 5CA5F0F3
P 3950 10650
F 0 "#PWR0104" H 3950 10400 50  0001 C CNN
F 1 "GND" H 3955 10477 50  0000 C CNN
F 2 "" H 3950 10650 50  0001 C CNN
F 3 "" H 3950 10650 50  0001 C CNN
	1    3950 10650
	1    0    0    -1  
$EndComp
Wire Wire Line
	2350 8900 2200 8900
Wire Wire Line
	2200 8900 2200 9000
$Comp
L power:GND #PWR0105
U 1 1 5CA65D80
P 2200 10450
F 0 "#PWR0105" H 2200 10200 50  0001 C CNN
F 1 "GND" H 2205 10277 50  0000 C CNN
F 2 "" H 2200 10450 50  0001 C CNN
F 3 "" H 2200 10450 50  0001 C CNN
	1    2200 10450
	1    0    0    -1  
$EndComp
Wire Wire Line
	2200 9000 2350 9000
Connection ~ 2200 9000
Wire Wire Line
	2200 9000 2200 10000
Wire Wire Line
	2350 10000 2200 10000
Connection ~ 2200 10000
Wire Wire Line
	2200 10000 2200 10450
$Comp
L Device:C C2
U 1 1 5CA6E979
P 1950 10200
F 0 "C2" H 1965 10280 50  0000 L CNN
F 1 "1µ" H 1960 10120 50  0000 L CNN
F 2 "Capacitor_SMD:C_0805_2012Metric" H 1988 10050 50  0001 C CNN
F 3 "~" H 1950 10200 50  0001 C CNN
	1    1950 10200
	1    0    0    -1  
$EndComp
$Comp
L power:GND #PWR0106
U 1 1 5CA6ECD2
P 1950 10450
F 0 "#PWR0106" H 1950 10200 50  0001 C CNN
F 1 "GND" H 1955 10277 50  0000 C CNN
F 2 "" H 1950 10450 50  0001 C CNN
F 3 "" H 1950 10450 50  0001 C CNN
	1    1950 10450
	1    0    0    -1  
$EndComp
Wire Wire Line
	1950 10450 1950 10350
Wire Wire Line
	1950 10050 1950 9900
Wire Wire Line
	1950 9900 2350 9900
Wire Wire Line
	1950 9900 1950 9700
Wire Wire Line
	1950 9500 2350 9500
Connection ~ 1950 9900
Wire Wire Line
	2350 9600 1950 9600
Connection ~ 1950 9600
Wire Wire Line
	1950 9600 1950 9500
Wire Wire Line
	2350 9700 1950 9700
Connection ~ 1950 9700
Wire Wire Line
	1950 9700 1950 9600
$Comp
L Device:C C1
U 1 1 5CA85B27
P 1650 10200
F 0 "C1" H 1665 10285 50  0000 L CNN
F 1 "22µ" H 1665 10110 50  0000 L CNN
F 2 "Capacitor_SMD:C_1206_3216Metric" H 1688 10050 50  0001 C CNN
F 3 "~" H 1650 10200 50  0001 C CNN
	1    1650 10200
	1    0    0    -1  
$EndComp
Wire Wire Line
	1650 10050 1650 9600
Wire Wire Line
	1650 9600 1950 9600
Wire Wire Line
	1650 9600 1400 9600
Connection ~ 1650 9600
$Comp
L power:+3V3 #PWR0107
U 1 1 5CA9124E
P 1400 9600
F 0 "#PWR0107" H 1400 9450 50  0001 C CNN
F 1 "+3V3" V 1415 9728 50  0000 L CNN
F 2 "" H 1400 9600 50  0001 C CNN
F 3 "" H 1400 9600 50  0001 C CNN
	1    1400 9600
	0    -1   -1   0   
$EndComp
$Comp
L power:GND #PWR0108
U 1 1 5CA91350
P 1650 10450
F 0 "#PWR0108" H 1650 10200 50  0001 C CNN
F 1 "GND" H 1655 10277 50  0000 C CNN
F 2 "" H 1650 10450 50  0001 C CNN
F 3 "" H 1650 10450 50  0001 C CNN
	1    1650 10450
	1    0    0    -1  
$EndComp
Wire Wire Line
	1650 10450 1650 10350
Wire Wire Line
	3850 9800 4150 9800
Wire Wire Line
	3850 9500 4150 9500
Wire Wire Line
	4150 9500 4150 9600
Connection ~ 4150 9800
Wire Wire Line
	4150 9800 4400 9800
Wire Wire Line
	3850 9600 4150 9600
Connection ~ 4150 9600
Wire Wire Line
	4150 9600 4150 9700
Wire Wire Line
	3850 9700 4150 9700
Connection ~ 4150 9700
Wire Wire Line
	4150 9700 4150 9800
$Comp
L Device:C C5
U 1 1 5CAAD72F
P 4900 10150
F 0 "C5" H 4910 10245 50  0000 L CNN
F 1 "22µ" H 4915 10070 50  0000 L CNN
F 2 "Capacitor_SMD:C_0603_1608Metric" H 4938 10000 50  0001 C CNN
F 3 "~" H 4900 10150 50  0001 C CNN
	1    4900 10150
	1    0    0    -1  
$EndComp
$Comp
L Device:C C4
U 1 1 5CAADDD4
P 4650 10150
F 0 "C4" H 4655 10235 50  0000 L CNN
F 1 "22µ" H 4655 10065 50  0000 L CNN
F 2 "Capacitor_SMD:C_0603_1608Metric" H 4688 10000 50  0001 C CNN
F 3 "~" H 4650 10150 50  0001 C CNN
	1    4650 10150
	1    0    0    -1  
$EndComp
$Comp
L Device:R R1
U 1 1 5CAAED74
P 4400 10050
F 0 "R1" H 4470 10096 50  0000 L CNN
F 1 "348k" H 4470 10005 50  0000 L CNN
F 2 "Resistor_SMD:R_0603_1608Metric" V 4330 10050 50  0001 C CNN
F 3 "~" H 4400 10050 50  0001 C CNN
	1    4400 10050
	1    0    0    -1  
$EndComp
$Comp
L Device:R R2
U 1 1 5CAAEEB6
P 4400 10450
F 0 "R2" H 4470 10496 50  0000 L CNN
F 1 "523k" H 4470 10405 50  0000 L CNN
F 2 "Resistor_SMD:R_0603_1608Metric" V 4330 10450 50  0001 C CNN
F 3 "~" H 4400 10450 50  0001 C CNN
	1    4400 10450
	1    0    0    -1  
$EndComp
$Comp
L power:GND #PWR0109
U 1 1 5CAB4A26
P 4400 10650
F 0 "#PWR0109" H 4400 10400 50  0001 C CNN
F 1 "GND" H 4405 10477 50  0000 C CNN
F 2 "" H 4400 10650 50  0001 C CNN
F 3 "" H 4400 10650 50  0001 C CNN
	1    4400 10650
	1    0    0    -1  
$EndComp
Wire Wire Line
	4400 10650 4400 10600
Wire Wire Line
	4400 10300 4400 10250
Wire Wire Line
	4400 9900 4400 9800
Connection ~ 4400 9800
Wire Wire Line
	4400 9800 4650 9800
Wire Wire Line
	2350 10100 2300 10100
Wire Wire Line
	2300 10100 2300 10250
Wire Wire Line
	2300 10250 4150 10250
Connection ~ 4400 10250
Wire Wire Line
	4400 10250 4400 10200
$Comp
L Device:C C3
U 1 1 5CAD45A4
P 4150 10050
F 0 "C3" H 4035 10125 50  0000 L CNN
F 1 "8.2p" H 4030 9975 50  0000 L CNN
F 2 "Capacitor_SMD:C_0603_1608Metric" H 4188 9900 50  0001 C CNN
F 3 "~" H 4150 10050 50  0001 C CNN
	1    4150 10050
	1    0    0    -1  
$EndComp
Wire Wire Line
	4150 9800 4150 9900
Wire Wire Line
	4150 10200 4150 10250
Connection ~ 4150 10250
Wire Wire Line
	4150 10250 4400 10250
Wire Wire Line
	4650 9800 4650 10000
Connection ~ 4650 9800
Wire Wire Line
	4650 9800 4900 9800
$Comp
L power:GND #PWR0110
U 1 1 5CAF5B33
P 4650 10650
F 0 "#PWR0110" H 4650 10400 50  0001 C CNN
F 1 "GND" H 4655 10477 50  0000 C CNN
F 2 "" H 4650 10650 50  0001 C CNN
F 3 "" H 4650 10650 50  0001 C CNN
	1    4650 10650
	1    0    0    -1  
$EndComp
Wire Wire Line
	4650 10650 4650 10300
$Comp
L power:GND #PWR0111
U 1 1 5CAFD373
P 4900 10650
F 0 "#PWR0111" H 4900 10400 50  0001 C CNN
F 1 "GND" H 4905 10477 50  0000 C CNN
F 2 "" H 4900 10650 50  0001 C CNN
F 3 "" H 4900 10650 50  0001 C CNN
	1    4900 10650
	1    0    0    -1  
$EndComp
Wire Wire Line
	4900 10650 4900 10300
Wire Wire Line
	4900 10000 4900 9800
$Comp
L power:+1V0 #PWR0112
U 1 1 5CB0D375
P 4900 9700
F 0 "#PWR0112" H 4900 9550 50  0001 C CNN
F 1 "+1V0" H 4915 9873 50  0000 C CNN
F 2 "" H 4900 9700 50  0001 C CNN
F 3 "" H 4900 9700 50  0001 C CNN
	1    4900 9700
	1    0    0    -1  
$EndComp
Wire Wire Line
	4900 9700 4900 9800
Connection ~ 4900 9800
$Comp
L power:+1V0 #PWR0113
U 1 1 5CB27624
P 12750 6750
F 0 "#PWR0113" H 12750 6600 50  0001 C CNN
F 1 "+1V0" V 12765 6878 50  0000 L CNN
F 2 "" H 12750 6750 50  0001 C CNN
F 3 "" H 12750 6750 50  0001 C CNN
	1    12750 6750
	0    -1   -1   0   
$EndComp
Wire Wire Line
	12750 6750 12850 6750
Wire Wire Line
	12850 6750 12850 6850
Wire Wire Line
	12850 7650 12900 7650
Connection ~ 12850 6750
Wire Wire Line
	12850 6750 12900 6750
Wire Wire Line
	12900 7550 12850 7550
Connection ~ 12850 7550
Wire Wire Line
	12850 7550 12850 7650
Wire Wire Line
	12900 7450 12850 7450
Connection ~ 12850 7450
Wire Wire Line
	12850 7450 12850 7550
Wire Wire Line
	12900 7350 12850 7350
Connection ~ 12850 7350
Wire Wire Line
	12850 7350 12850 7450
Wire Wire Line
	12900 7250 12850 7250
Connection ~ 12850 7250
Wire Wire Line
	12850 7250 12850 7350
Wire Wire Line
	12900 7150 12850 7150
Connection ~ 12850 7150
Wire Wire Line
	12850 7150 12850 7250
Wire Wire Line
	12900 7050 12850 7050
Connection ~ 12850 7050
Wire Wire Line
	12850 7050 12850 7150
Wire Wire Line
	12900 6950 12850 6950
Connection ~ 12850 6950
Wire Wire Line
	12850 6950 12850 7050
Wire Wire Line
	12900 6850 12850 6850
Connection ~ 12850 6850
Wire Wire Line
	12850 6850 12850 6950
Wire Wire Line
	12700 7850 12850 7850
Wire Wire Line
	12900 8150 12850 8150
Wire Wire Line
	12850 8150 12850 8050
Connection ~ 12850 7850
Wire Wire Line
	12850 7850 12900 7850
Wire Wire Line
	12850 7950 12900 7950
Connection ~ 12850 7950
Wire Wire Line
	12850 7950 12850 7850
Wire Wire Line
	12850 8050 12900 8050
Connection ~ 12850 8050
Wire Wire Line
	12850 8050 12850 7950
$Comp
L power:+1V0 #PWR0115
U 1 1 5CBA8E90
P 12700 9250
F 0 "#PWR0115" H 12700 9100 50  0001 C CNN
F 1 "+1V0" V 12715 9378 50  0000 L CNN
F 2 "" H 12700 9250 50  0001 C CNN
F 3 "" H 12700 9250 50  0001 C CNN
	1    12700 9250
	0    -1   -1   0   
$EndComp
Wire Wire Line
	12700 9250 12850 9250
Wire Wire Line
	12900 9450 12850 9450
Wire Wire Line
	12850 9450 12850 9350
Connection ~ 12850 9250
Wire Wire Line
	12850 9250 12900 9250
Wire Wire Line
	12850 9350 12900 9350
Connection ~ 12850 9350
Wire Wire Line
	12850 9350 12850 9250
$Comp
L power:+3V3 #PWR0116
U 1 1 5CBCB613
P 12700 8350
F 0 "#PWR0116" H 12700 8200 50  0001 C CNN
F 1 "+3V3" V 12715 8478 50  0000 L CNN
F 2 "" H 12700 8350 50  0001 C CNN
F 3 "" H 12700 8350 50  0001 C CNN
	1    12700 8350
	0    -1   -1   0   
$EndComp
Wire Wire Line
	12700 8350 12850 8350
Wire Wire Line
	12900 9050 12850 9050
Wire Wire Line
	12850 9050 12850 8950
Connection ~ 12850 8350
Wire Wire Line
	12850 8350 12900 8350
Wire Wire Line
	12900 8450 12850 8450
Connection ~ 12850 8450
Wire Wire Line
	12850 8450 12850 8350
Wire Wire Line
	12900 8550 12850 8550
Connection ~ 12850 8550
Wire Wire Line
	12850 8550 12850 8450
Wire Wire Line
	12900 8650 12850 8650
Connection ~ 12850 8650
Wire Wire Line
	12850 8650 12850 8550
Wire Wire Line
	12900 8750 12850 8750
Connection ~ 12850 8750
Wire Wire Line
	12850 8750 12850 8650
Wire Wire Line
	12900 8850 12850 8850
Connection ~ 12850 8850
Wire Wire Line
	12850 8850 12850 8750
Wire Wire Line
	12900 8950 12850 8950
Connection ~ 12850 8950
Wire Wire Line
	12850 8950 12850 8850
$Comp
L mylib:ATECC608A U3
U 1 1 5C91AD06
P 9650 10300
F 0 "U3" H 9500 9850 50  0000 C CNN
F 1 "ATECC608A" H 9650 9950 50  0000 C CNN
F 2 "Package_DFN_QFN:DFN-8-1EP_3x2mm_P0.5mm_EP1.3x1.5mm" H 9500 10350 50  0001 C CNN
F 3 "" H 9500 10350 50  0001 C CNN
	1    9650 10300
	1    0    0    -1  
$EndComp
$Comp
L power:+3V3 #PWR0117
U 1 1 5C91EB9A
P 10100 9900
F 0 "#PWR0117" H 10100 9750 50  0001 C CNN
F 1 "+3V3" H 10115 10073 50  0000 C CNN
F 2 "" H 10100 9900 50  0001 C CNN
F 3 "" H 10100 9900 50  0001 C CNN
	1    10100 9900
	1    0    0    -1  
$EndComp
$Comp
L power:GND #PWR0118
U 1 1 5C91EF9C
P 9250 10600
F 0 "#PWR0118" H 9250 10350 50  0001 C CNN
F 1 "GND" H 9255 10427 50  0000 C CNN
F 2 "" H 9250 10600 50  0001 C CNN
F 3 "" H 9250 10600 50  0001 C CNN
	1    9250 10600
	1    0    0    -1  
$EndComp
Wire Wire Line
	9250 10600 9250 10500
Wire Wire Line
	9250 10500 9350 10500
Wire Wire Line
	10000 10200 10100 10200
Wire Wire Line
	10100 10200 10100 9950
Wire Wire Line
	10000 10400 10300 10400
Wire Wire Line
	10000 10500 10400 10500
Text Label 10500 10400 0    50   ~ 0
I2C_SCL
Text Label 10500 10500 0    50   ~ 0
I2C_SDA
$Comp
L Device:R R9
U 1 1 5C96E91E
P 10300 10150
F 0 "R9" H 10150 10095 50  0000 L CNN
F 1 "1k5" H 10155 10010 50  0000 L CNN
F 2 "Resistor_SMD:R_0402_1005Metric" V 10230 10150 50  0001 C CNN
F 3 "~" H 10300 10150 50  0001 C CNN
	1    10300 10150
	1    0    0    -1  
$EndComp
$Comp
L Device:R R10
U 1 1 5C96ECD1
P 10400 10150
F 0 "R10" H 10455 10125 50  0000 L CNN
F 1 "1k5" H 10465 10045 50  0000 L CNN
F 2 "Resistor_SMD:R_0402_1005Metric" V 10330 10150 50  0001 C CNN
F 3 "~" H 10400 10150 50  0001 C CNN
	1    10400 10150
	1    0    0    -1  
$EndComp
Wire Wire Line
	10300 10300 10300 10400
Connection ~ 10300 10400
Wire Wire Line
	10300 10400 10650 10400
Wire Wire Line
	10400 10300 10400 10500
Connection ~ 10400 10500
Wire Wire Line
	10400 10500 10650 10500
$Comp
L power:+3V3 #PWR0119
U 1 1 5C997880
P 10300 9900
F 0 "#PWR0119" H 10300 9750 50  0001 C CNN
F 1 "+3V3" H 10315 10073 50  0000 C CNN
F 2 "" H 10300 9900 50  0001 C CNN
F 3 "" H 10300 9900 50  0001 C CNN
	1    10300 9900
	1    0    0    -1  
$EndComp
$Comp
L power:+3V3 #PWR0120
U 1 1 5C9A5537
P 10400 9900
F 0 "#PWR0120" H 10400 9750 50  0001 C CNN
F 1 "+3V3" H 10415 10073 50  0000 C CNN
F 2 "" H 10400 9900 50  0001 C CNN
F 3 "" H 10400 9900 50  0001 C CNN
	1    10400 9900
	1    0    0    -1  
$EndComp
Wire Wire Line
	10300 9900 10300 10000
Wire Wire Line
	10400 9900 10400 10000
$Comp
L Device:C C8
U 1 1 5C9CE847
P 9650 9950
F 0 "C8" V 9398 9950 50  0000 C CNN
F 1 "100n" V 9489 9950 50  0000 C CNN
F 2 "Capacitor_SMD:C_0402_1005Metric" H 9688 9800 50  0001 C CNN
F 3 "~" H 9650 9950 50  0001 C CNN
	1    9650 9950
	0    1    1    0   
$EndComp
Wire Wire Line
	9500 9950 9250 9950
Wire Wire Line
	9250 9950 9250 10500
Connection ~ 9250 10500
Wire Wire Line
	9800 9950 10100 9950
Connection ~ 10100 9950
Wire Wire Line
	10100 9950 10100 9900
$Comp
L power:+3V3 #PWR0121
U 1 1 5C92F9F0
P 6100 6350
F 0 "#PWR0121" H 6100 6200 50  0001 C CNN
F 1 "+3V3" V 6115 6478 50  0000 L CNN
F 2 "" H 6100 6350 50  0001 C CNN
F 3 "" H 6100 6350 50  0001 C CNN
	1    6100 6350
	0    1    -1   0   
$EndComp
Wire Wire Line
	5850 6350 6100 6350
$Comp
L power:GND #PWR0122
U 1 1 5C93F4CF
P 6150 6450
F 0 "#PWR0122" H 6150 6200 50  0001 C CNN
F 1 "GND" V 6155 6322 50  0000 R CNN
F 2 "" H 6150 6450 50  0001 C CNN
F 3 "" H 6150 6450 50  0001 C CNN
	1    6150 6450
	0    -1   -1   0   
$EndComp
Text Label 6950 5850 0    50   ~ 0
TMS
Text Label 6950 5950 0    50   ~ 0
TCK
Text Label 6950 6050 0    50   ~ 0
TDI
Text Label 6950 6150 0    50   ~ 0
TDO
Wire Wire Line
	5850 6750 5900 6750
$Comp
L mylib:XC7S50 U1
U 2 1 5C96447A
P 3650 1600
F 0 "U1" H 4978 496 50  0000 L CNN
F 1 "XC7S50" H 4978 405 50  0000 L CNN
F 2 "myfootprints:FTGB196" H 2850 1600 50  0001 C CNN
F 3 "" H 2850 1600 50  0001 C CNN
	2    3650 1600
	1    0    0    -1  
$EndComp
Wire Wire Line
	3550 1600 3150 1600
Text Label 3450 1600 2    50   ~ 0
FLASH_D00
Wire Wire Line
	3550 1700 3150 1700
Wire Wire Line
	3550 1800 3150 1800
Wire Wire Line
	3550 1900 3150 1900
Text Label 3450 1700 2    50   ~ 0
FLASH_D01
Text Label 3450 1800 2    50   ~ 0
FLASH_DO2
Text Label 3450 1900 2    50   ~ 0
FLASH_D03
Text Label 6950 6750 0    50   ~ 0
FLASH_CCLK
Wire Wire Line
	3550 2600 3150 2600
Text Label 3500 2600 2    50   ~ 0
FLASH_CS
$Comp
L power:+3V3 #PWR0123
U 1 1 5CA689D7
P 4350 7450
F 0 "#PWR0123" H 4350 7300 50  0001 C CNN
F 1 "+3V3" V 4365 7578 50  0000 L CNN
F 2 "" H 4350 7450 50  0001 C CNN
F 3 "" H 4350 7450 50  0001 C CNN
	1    4350 7450
	0    -1   -1   0   
$EndComp
Wire Wire Line
	4350 7450 4650 7450
$Comp
L Device:R R4
U 1 1 5CA7C074
P 6300 5500
F 0 "R4" H 6155 5560 50  0000 L CNN
F 1 "10k" H 6160 5635 50  0000 L CNN
F 2 "Resistor_SMD:R_0402_1005Metric" V 6230 5500 50  0001 C CNN
F 3 "~" H 6300 5500 50  0001 C CNN
	1    6300 5500
	1    0    0    -1  
$EndComp
$Comp
L Device:R R5
U 1 1 5CA7C403
P 6400 5500
F 0 "R5" H 6435 5445 50  0000 L CNN
F 1 "10k" H 6400 5365 50  0000 L CNN
F 2 "Resistor_SMD:R_0402_1005Metric" V 6330 5500 50  0001 C CNN
F 3 "~" H 6400 5500 50  0001 C CNN
	1    6400 5500
	1    0    0    -1  
$EndComp
Wire Wire Line
	6300 5850 6300 5650
Wire Wire Line
	5850 5850 6300 5850
Wire Wire Line
	6400 5950 6400 5650
Wire Wire Line
	5850 5950 6400 5950
Connection ~ 6300 5850
Connection ~ 6400 5950
$Comp
L power:+3V3 #PWR0124
U 1 1 5CAEEA20
P 6300 5350
F 0 "#PWR0124" H 6300 5200 50  0001 C CNN
F 1 "+3V3" V 6290 5565 50  0000 C CNN
F 2 "" H 6300 5350 50  0001 C CNN
F 3 "" H 6300 5350 50  0001 C CNN
	1    6300 5350
	1    0    0    -1  
$EndComp
$Comp
L power:+3V3 #PWR0125
U 1 1 5CAEEDE7
P 6400 5350
F 0 "#PWR0125" H 6400 5200 50  0001 C CNN
F 1 "+3V3" V 6395 5565 50  0000 C CNN
F 2 "" H 6400 5350 50  0001 C CNN
F 3 "" H 6400 5350 50  0001 C CNN
	1    6400 5350
	1    0    0    -1  
$EndComp
$Comp
L Device:R R6
U 1 1 5CAEEF8A
P 6600 5500
F 0 "R6" H 6460 5580 50  0000 L CNN
F 1 "4k7" H 6460 5640 50  0000 L CNN
F 2 "Resistor_SMD:R_0402_1005Metric" V 6530 5500 50  0001 C CNN
F 3 "~" H 6600 5500 50  0001 C CNN
	1    6600 5500
	1    0    0    -1  
$EndComp
Wire Wire Line
	5850 6950 6600 6950
$Comp
L power:+3V3 #PWR0126
U 1 1 5CB63C50
P 6600 5350
F 0 "#PWR0126" H 6600 5200 50  0001 C CNN
F 1 "+3V3" V 6590 5555 50  0000 C CNN
F 2 "" H 6600 5350 50  0001 C CNN
F 3 "" H 6600 5350 50  0001 C CNN
	1    6600 5350
	1    0    0    -1  
$EndComp
Text Label 6950 6950 0    50   ~ 0
PROGRAM
$Comp
L Device:R R7
U 1 1 5CB64C6D
P 6700 5500
F 0 "R7" H 6745 5425 50  0000 L CNN
F 1 "4k7" H 6705 5355 50  0000 L CNN
F 2 "Resistor_SMD:R_0402_1005Metric" V 6630 5500 50  0001 C CNN
F 3 "~" H 6700 5500 50  0001 C CNN
	1    6700 5500
	1    0    0    -1  
$EndComp
Wire Wire Line
	5850 7050 6700 7050
Wire Wire Line
	6700 5650 6700 7050
$Comp
L power:+3V3 #PWR0127
U 1 1 5CC22055
P 6700 5350
F 0 "#PWR0127" H 6700 5200 50  0001 C CNN
F 1 "+3V3" V 6690 5545 50  0000 C CNN
F 2 "" H 6700 5350 50  0001 C CNN
F 3 "" H 6700 5350 50  0001 C CNN
	1    6700 5350
	1    0    0    -1  
$EndComp
Text Label 6950 6850 0    50   ~ 0
DONE
$Comp
L Device:R R3
U 1 1 5CC6432E
P 6050 6750
F 0 "R3" V 5965 6675 50  0000 C CNN
F 1 "33R" V 5965 6845 50  0000 C CNN
F 2 "Resistor_SMD:R_0402_1005Metric" V 5980 6750 50  0001 C CNN
F 3 "~" H 6050 6750 50  0001 C CNN
	1    6050 6750
	0    1    1    0   
$EndComp
$Comp
L Device:R R8
U 1 1 5CCF61E8
P 3250 2000
F 0 "R8" V 3335 1945 50  0000 C CNN
F 1 "1k" V 3335 2085 50  0000 C CNN
F 2 "Resistor_SMD:R_0402_1005Metric" V 3180 2000 50  0001 C CNN
F 3 "~" H 3250 2000 50  0001 C CNN
	1    3250 2000
	0    1    1    0   
$EndComp
$Comp
L power:+3V3 #PWR0128
U 1 1 5CCF6949
P 3000 2000
F 0 "#PWR0128" H 3000 1850 50  0001 C CNN
F 1 "+3V3" V 3015 2128 50  0000 L CNN
F 2 "" H 3000 2000 50  0001 C CNN
F 3 "" H 3000 2000 50  0001 C CNN
	1    3000 2000
	0    -1   -1   0   
$EndComp
Wire Wire Line
	3000 2000 3100 2000
Wire Wire Line
	3400 2000 3550 2000
$Comp
L mylib:EP5388QI U2
U 1 1 5CD379C1
P 6950 9950
F 0 "U2" H 6925 10465 50  0000 C CNN
F 1 "EP5388QI" H 6925 10374 50  0000 C CNN
F 2 "myfootprints:EP5388QI" H 6700 10000 50  0001 C CNN
F 3 "" H 6700 10000 50  0001 C CNN
	1    6950 9950
	1    0    0    -1  
$EndComp
$Comp
L power:+3V3 #PWR0129
U 1 1 5CD60F5F
P 6350 10200
F 0 "#PWR0129" H 6350 10050 50  0001 C CNN
F 1 "+3V3" V 6365 10328 50  0000 L CNN
F 2 "" H 6350 10200 50  0001 C CNN
F 3 "" H 6350 10200 50  0001 C CNN
	1    6350 10200
	0    -1   -1   0   
$EndComp
$Comp
L power:GND #PWR0130
U 1 1 5CD62671
P 6350 10100
F 0 "#PWR0130" H 6350 9850 50  0001 C CNN
F 1 "GND" V 6355 9972 50  0000 R CNN
F 2 "" H 6350 10100 50  0001 C CNN
F 3 "" H 6350 10100 50  0001 C CNN
	1    6350 10100
	0    1    1    0   
$EndComp
$Comp
L power:GND #PWR0131
U 1 1 5CD6285E
P 6350 10300
F 0 "#PWR0131" H 6350 10050 50  0001 C CNN
F 1 "GND" V 6355 10172 50  0000 R CNN
F 2 "" H 6350 10300 50  0001 C CNN
F 3 "" H 6350 10300 50  0001 C CNN
	1    6350 10300
	0    1    1    0   
$EndComp
Wire Wire Line
	6350 10300 6400 10300
Wire Wire Line
	6350 10200 6400 10200
Wire Wire Line
	6350 10100 6400 10100
$Comp
L power:GND #PWR0132
U 1 1 5CDA0350
P 6950 10650
F 0 "#PWR0132" H 6950 10400 50  0001 C CNN
F 1 "GND" H 6955 10477 50  0000 C CNN
F 2 "" H 6950 10650 50  0001 C CNN
F 3 "" H 6950 10650 50  0001 C CNN
	1    6950 10650
	1    0    0    -1  
$EndComp
Wire Wire Line
	6850 10500 6850 10550
Wire Wire Line
	6850 10550 6950 10550
Wire Wire Line
	6950 10550 6950 10650
Wire Wire Line
	6950 10500 6950 10550
Connection ~ 6950 10550
Wire Wire Line
	7050 10500 7050 10550
Wire Wire Line
	7050 10550 6950 10550
Wire Wire Line
	7450 9900 7550 9900
Wire Wire Line
	7550 9900 7550 9800
Wire Wire Line
	7550 9800 7450 9800
Wire Wire Line
	7550 9800 7800 9800
Connection ~ 7550 9800
$Comp
L power:+1V8 #PWR0133
U 1 1 5CE0C1E2
P 7800 9700
F 0 "#PWR0133" H 7800 9550 50  0001 C CNN
F 1 "+1V8" H 7815 9873 50  0000 C CNN
F 2 "" H 7800 9700 50  0001 C CNN
F 3 "" H 7800 9700 50  0001 C CNN
	1    7800 9700
	1    0    0    -1  
$EndComp
Wire Wire Line
	7800 9700 7800 9800
Wire Wire Line
	7450 9700 7550 9700
Wire Wire Line
	7550 9700 7550 9800
Wire Wire Line
	6400 9700 6250 9700
Wire Wire Line
	6250 9700 6250 9800
Wire Wire Line
	6250 9800 6400 9800
Wire Wire Line
	6250 9800 5850 9800
Connection ~ 6250 9800
$Comp
L power:+3V3 #PWR0134
U 1 1 5CE67B19
P 5850 9700
F 0 "#PWR0134" H 5850 9550 50  0001 C CNN
F 1 "+3V3" H 5865 9873 50  0000 C CNN
F 2 "" H 5850 9700 50  0001 C CNN
F 3 "" H 5850 9700 50  0001 C CNN
	1    5850 9700
	1    0    0    -1  
$EndComp
Wire Wire Line
	5850 9700 5850 9800
$Comp
L Device:C C6
U 1 1 5CE7FF21
P 5850 10050
F 0 "C6" H 5700 10150 50  0000 L CNN
F 1 "4µ7" H 5700 9950 50  0000 L CNN
F 2 "Capacitor_SMD:C_0603_1608Metric" H 5888 9900 50  0001 C CNN
F 3 "~" H 5850 10050 50  0001 C CNN
	1    5850 10050
	1    0    0    -1  
$EndComp
Wire Wire Line
	5850 9800 5850 9900
Connection ~ 5850 9800
$Comp
L power:GND #PWR0135
U 1 1 5CEC52EA
P 5850 10350
F 0 "#PWR0135" H 5850 10100 50  0001 C CNN
F 1 "GND" H 5855 10177 50  0000 C CNN
F 2 "" H 5850 10350 50  0001 C CNN
F 3 "" H 5850 10350 50  0001 C CNN
	1    5850 10350
	1    0    0    -1  
$EndComp
Wire Wire Line
	5850 10200 5850 10350
$Comp
L Device:C C7
U 1 1 5CEDD9B2
P 7800 10050
F 0 "C7" H 7650 10150 50  0000 L CNN
F 1 "47µ" H 7650 9950 50  0000 L CNN
F 2 "Capacitor_SMD:C_1206_3216Metric" H 7838 9900 50  0001 C CNN
F 3 "~" H 7800 10050 50  0001 C CNN
	1    7800 10050
	1    0    0    -1  
$EndComp
$Comp
L power:GND #PWR0136
U 1 1 5CEDE74B
P 7800 10350
F 0 "#PWR0136" H 7800 10100 50  0001 C CNN
F 1 "GND" H 7805 10177 50  0000 C CNN
F 2 "" H 7800 10350 50  0001 C CNN
F 3 "" H 7800 10350 50  0001 C CNN
	1    7800 10350
	1    0    0    -1  
$EndComp
Wire Wire Line
	7800 10350 7800 10200
Wire Wire Line
	7800 9900 7800 9800
Connection ~ 7800 9800
$Comp
L power:+1V8 #PWR0114
U 1 1 5CF8B85A
P 12700 7850
F 0 "#PWR0114" H 12700 7700 50  0001 C CNN
F 1 "+1V8" H 12715 8023 50  0000 C CNN
F 2 "" H 12700 7850 50  0001 C CNN
F 3 "" H 12700 7850 50  0001 C CNN
	1    12700 7850
	1    0    0    -1  
$EndComp
$Comp
L power:+1V8 #PWR0137
U 1 1 5CF8BDB6
P 4550 5750
F 0 "#PWR0137" H 4550 5600 50  0001 C CNN
F 1 "+1V8" H 4565 5923 50  0000 C CNN
F 2 "" H 4550 5750 50  0001 C CNN
F 3 "" H 4550 5750 50  0001 C CNN
	1    4550 5750
	1    0    0    -1  
$EndComp
Wire Wire Line
	4550 5850 4650 5850
Wire Wire Line
	4550 5750 4550 5850
$Comp
L power:GND #PWR0138
U 1 1 5CFA7406
P 4550 6400
F 0 "#PWR0138" H 4550 6150 50  0001 C CNN
F 1 "GND" H 4555 6227 50  0000 C CNN
F 2 "" H 4550 6400 50  0001 C CNN
F 3 "" H 4550 6400 50  0001 C CNN
	1    4550 6400
	0    1    1    0   
$EndComp
Wire Wire Line
	4550 6400 4650 6400
$Comp
L power:GND #PWR0139
U 1 1 5D00AEBB
P 4550 6850
F 0 "#PWR0139" H 4550 6600 50  0001 C CNN
F 1 "GND" H 4555 6677 50  0000 C CNN
F 2 "" H 4550 6850 50  0001 C CNN
F 3 "" H 4550 6850 50  0001 C CNN
	1    4550 6850
	0    1    1    0   
$EndComp
Wire Wire Line
	4650 6850 4600 6850
Wire Wire Line
	4650 6950 4600 6950
Wire Wire Line
	4600 6950 4600 6850
Connection ~ 4600 6850
Wire Wire Line
	4600 6850 4550 6850
Wire Wire Line
	4650 7150 4600 7150
Wire Wire Line
	4600 7150 4600 6950
Connection ~ 4600 6950
Wire Wire Line
	4650 7250 4600 7250
Wire Wire Line
	4600 7250 4600 7150
Connection ~ 4600 7150
Wire Wire Line
	4650 6600 4600 6600
Wire Wire Line
	4600 6600 4600 6700
Wire Wire Line
	4650 6700 4600 6700
Connection ~ 4600 6700
Wire Wire Line
	4600 6700 4600 6850
Wire Wire Line
	4650 5950 4550 5950
Wire Wire Line
	4550 5950 4550 5850
Connection ~ 4550 5850
$Comp
L mylib:S25FL128SAGN U4
U 1 1 5D0E5162
P 14200 1400
F 0 "U4" H 14175 1775 50  0000 C CNN
F 1 "S25FL128SAGN" H 14175 1684 50  0000 C CNN
F 2 "myfootprints:WSON8-8x6" H 13850 1550 50  0001 C CNN
F 3 "" H 13850 1550 50  0001 C CNN
	1    14200 1400
	1    0    0    -1  
$EndComp
$Comp
L power:+3V3 #PWR0140
U 1 1 5D0E762C
P 14750 1150
F 0 "#PWR0140" H 14750 1000 50  0001 C CNN
F 1 "+3V3" H 14765 1323 50  0000 C CNN
F 2 "" H 14750 1150 50  0001 C CNN
F 3 "" H 14750 1150 50  0001 C CNN
	1    14750 1150
	1    0    0    -1  
$EndComp
Wire Wire Line
	14750 1150 14750 1250
Wire Wire Line
	14750 1250 14650 1250
$Comp
L power:GND #PWR0141
U 1 1 5D10455F
P 13600 1850
F 0 "#PWR0141" H 13600 1600 50  0001 C CNN
F 1 "GND" H 13605 1677 50  0000 C CNN
F 2 "" H 13600 1850 50  0001 C CNN
F 3 "" H 13600 1850 50  0001 C CNN
	1    13600 1850
	1    0    0    -1  
$EndComp
Wire Wire Line
	13600 1850 13600 1750
Wire Wire Line
	13600 1550 13700 1550
$Comp
L Device:C C9
U 1 1 5D121961
P 14200 1750
F 0 "C9" V 14250 1650 50  0000 C CNN
F 1 "100n" V 14250 1900 50  0000 C CNN
F 2 "Capacitor_SMD:C_0402_1005Metric" H 14238 1600 50  0001 C CNN
F 3 "~" H 14200 1750 50  0001 C CNN
	1    14200 1750
	0    1    1    0   
$EndComp
Wire Wire Line
	14050 1750 13600 1750
Connection ~ 13600 1750
Wire Wire Line
	13600 1750 13600 1550
Wire Wire Line
	14350 1750 14750 1750
Wire Wire Line
	14750 1750 14750 1250
Connection ~ 14750 1250
Wire Wire Line
	13700 1250 13600 1250
Text Label 15050 1550 0    50   ~ 0
FLASH_D00
Text Label 15050 1450 0    50   ~ 0
FLASH_CCLK
Text Label 15050 1350 0    50   ~ 0
FLASH_D03
Text Label 13150 1250 2    50   ~ 0
FLASH_CS
Text Label 13150 1350 2    50   ~ 0
FLASH_D01
Text Label 13150 1450 2    50   ~ 0
FLASH_DO2
$Comp
L Device:C C15
U 1 1 5D2F93A4
P 13650 4200
F 0 "C15" V 13700 4015 50  0000 L CNN
F 1 "47µ" V 13695 4245 50  0000 L CNN
F 2 "Capacitor_SMD:C_0805_2012Metric" H 13688 4050 50  0001 C CNN
F 3 "~" H 13650 4200 50  0001 C CNN
	1    13650 4200
	1    0    0    -1  
$EndComp
$Comp
L power:GND #PWR0161
U 1 1 5D2FA485
P 13650 4350
F 0 "#PWR0161" H 13650 4100 50  0001 C CNN
F 1 "GND" H 13655 4177 50  0000 C CNN
F 2 "" H 13650 4350 50  0001 C CNN
F 3 "" H 13650 4350 50  0001 C CNN
	1    13650 4350
	1    0    0    -1  
$EndComp
$Comp
L power:GND #PWR0162
U 1 1 5D2FA5E9
P 13850 4350
F 0 "#PWR0162" H 13850 4100 50  0001 C CNN
F 1 "GND" H 13855 4177 50  0000 C CNN
F 2 "" H 13850 4350 50  0001 C CNN
F 3 "" H 13850 4350 50  0001 C CNN
	1    13850 4350
	1    0    0    -1  
$EndComp
$Comp
L power:GND #PWR0163
U 1 1 5D2FA7BD
P 14050 4350
F 0 "#PWR0163" H 14050 4100 50  0001 C CNN
F 1 "GND" H 14055 4177 50  0000 C CNN
F 2 "" H 14050 4350 50  0001 C CNN
F 3 "" H 14050 4350 50  0001 C CNN
	1    14050 4350
	1    0    0    -1  
$EndComp
$Comp
L power:+1V0 #PWR0165
U 1 1 5D2FACA2
P 13650 4050
F 0 "#PWR0165" H 13650 3900 50  0001 C CNN
F 1 "+1V0" H 13665 4223 50  0000 C CNN
F 2 "" H 13650 4050 50  0001 C CNN
F 3 "" H 13650 4050 50  0001 C CNN
	1    13650 4050
	1    0    0    -1  
$EndComp
$Comp
L power:+1V0 #PWR0166
U 1 1 5D2FAEEB
P 13850 4050
F 0 "#PWR0166" H 13850 3900 50  0001 C CNN
F 1 "+1V0" H 13865 4223 50  0000 C CNN
F 2 "" H 13850 4050 50  0001 C CNN
F 3 "" H 13850 4050 50  0001 C CNN
	1    13850 4050
	1    0    0    -1  
$EndComp
$Comp
L power:+1V0 #PWR0167
U 1 1 5D2FC50D
P 14050 4050
F 0 "#PWR0167" H 14050 3900 50  0001 C CNN
F 1 "+1V0" H 14065 4223 50  0000 C CNN
F 2 "" H 14050 4050 50  0001 C CNN
F 3 "" H 14050 4050 50  0001 C CNN
	1    14050 4050
	1    0    0    -1  
$EndComp
$Comp
L Device:C C12
U 1 1 5D31EC6A
P 13450 5000
F 0 "C12" V 13490 4805 50  0000 L CNN
F 1 "47µ" V 13495 5045 50  0000 L CNN
F 2 "Capacitor_SMD:C_0805_2012Metric" H 13488 4850 50  0001 C CNN
F 3 "~" H 13450 5000 50  0001 C CNN
	1    13450 5000
	1    0    0    -1  
$EndComp
$Comp
L Device:C C16
U 1 1 5D31F803
P 13650 5000
F 0 "C16" V 13695 4800 50  0000 L CNN
F 1 "4.7µ" V 13690 5035 50  0000 L CNN
F 2 "Capacitor_SMD:C_0805_2012Metric" H 13688 4850 50  0001 C CNN
F 3 "~" H 13650 5000 50  0001 C CNN
	1    13650 5000
	1    0    0    -1  
$EndComp
$Comp
L Device:C C20
U 1 1 5D31FD1C
P 13850 5000
F 0 "C20" V 13895 4800 50  0000 L CNN
F 1 "100n" V 13895 5040 50  0000 L CNN
F 2 "Capacitor_SMD:C_0402_1005Metric" H 13888 4850 50  0001 C CNN
F 3 "~" H 13850 5000 50  0001 C CNN
	1    13850 5000
	1    0    0    -1  
$EndComp
$Comp
L Device:C C24
U 1 1 5D32003E
P 14050 5000
F 0 "C24" V 14095 4805 50  0000 L CNN
F 1 "100n" V 14100 5035 50  0000 L CNN
F 2 "Capacitor_SMD:C_0402_1005Metric" H 14088 4850 50  0001 C CNN
F 3 "~" H 14050 5000 50  0001 C CNN
	1    14050 5000
	1    0    0    -1  
$EndComp
$Comp
L Device:C C27
U 1 1 5D3203CE
P 14250 5000
F 0 "C27" V 14295 4810 50  0000 L CNN
F 1 "100n" V 14295 5040 50  0000 L CNN
F 2 "Capacitor_SMD:C_0402_1005Metric" H 14288 4850 50  0001 C CNN
F 3 "~" H 14250 5000 50  0001 C CNN
	1    14250 5000
	1    0    0    -1  
$EndComp
$Comp
L power:GND #PWR0168
U 1 1 5D33D3DA
P 13450 5150
F 0 "#PWR0168" H 13450 4900 50  0001 C CNN
F 1 "GND" H 13455 4977 50  0000 C CNN
F 2 "" H 13450 5150 50  0001 C CNN
F 3 "" H 13450 5150 50  0001 C CNN
	1    13450 5150
	1    0    0    -1  
$EndComp
$Comp
L power:GND #PWR0169
U 1 1 5D33D66E
P 13650 5150
F 0 "#PWR0169" H 13650 4900 50  0001 C CNN
F 1 "GND" H 13655 4977 50  0000 C CNN
F 2 "" H 13650 5150 50  0001 C CNN
F 3 "" H 13650 5150 50  0001 C CNN
	1    13650 5150
	1    0    0    -1  
$EndComp
$Comp
L power:GND #PWR0170
U 1 1 5D33D7B5
P 13850 5150
F 0 "#PWR0170" H 13850 4900 50  0001 C CNN
F 1 "GND" H 13855 4977 50  0000 C CNN
F 2 "" H 13850 5150 50  0001 C CNN
F 3 "" H 13850 5150 50  0001 C CNN
	1    13850 5150
	1    0    0    -1  
$EndComp
$Comp
L power:GND #PWR0171
U 1 1 5D33D9F4
P 14050 5150
F 0 "#PWR0171" H 14050 4900 50  0001 C CNN
F 1 "GND" H 14055 4977 50  0000 C CNN
F 2 "" H 14050 5150 50  0001 C CNN
F 3 "" H 14050 5150 50  0001 C CNN
	1    14050 5150
	1    0    0    -1  
$EndComp
$Comp
L power:GND #PWR0172
U 1 1 5D33DBF0
P 14250 5150
F 0 "#PWR0172" H 14250 4900 50  0001 C CNN
F 1 "GND" H 14255 4977 50  0000 C CNN
F 2 "" H 14250 5150 50  0001 C CNN
F 3 "" H 14250 5150 50  0001 C CNN
	1    14250 5150
	1    0    0    -1  
$EndComp
$Comp
L power:+1V8 #PWR0173
U 1 1 5D33F1F6
P 13450 4850
F 0 "#PWR0173" H 13450 4700 50  0001 C CNN
F 1 "+1V8" H 13465 5023 50  0000 C CNN
F 2 "" H 13450 4850 50  0001 C CNN
F 3 "" H 13450 4850 50  0001 C CNN
	1    13450 4850
	1    0    0    -1  
$EndComp
$Comp
L power:+1V8 #PWR0174
U 1 1 5D33F49F
P 13650 4850
F 0 "#PWR0174" H 13650 4700 50  0001 C CNN
F 1 "+1V8" H 13665 5023 50  0000 C CNN
F 2 "" H 13650 4850 50  0001 C CNN
F 3 "" H 13650 4850 50  0001 C CNN
	1    13650 4850
	1    0    0    -1  
$EndComp
$Comp
L power:+1V8 #PWR0175
U 1 1 5D33F66A
P 13850 4850
F 0 "#PWR0175" H 13850 4700 50  0001 C CNN
F 1 "+1V8" H 13865 5023 50  0000 C CNN
F 2 "" H 13850 4850 50  0001 C CNN
F 3 "" H 13850 4850 50  0001 C CNN
	1    13850 4850
	1    0    0    -1  
$EndComp
$Comp
L power:+1V8 #PWR0176
U 1 1 5D33F99C
P 14050 4850
F 0 "#PWR0176" H 14050 4700 50  0001 C CNN
F 1 "+1V8" H 14065 5023 50  0000 C CNN
F 2 "" H 14050 4850 50  0001 C CNN
F 3 "" H 14050 4850 50  0001 C CNN
	1    14050 4850
	1    0    0    -1  
$EndComp
$Comp
L power:+1V8 #PWR0177
U 1 1 5D33FCDE
P 14250 4850
F 0 "#PWR0177" H 14250 4700 50  0001 C CNN
F 1 "+1V8" H 14265 5023 50  0000 C CNN
F 2 "" H 14250 4850 50  0001 C CNN
F 3 "" H 14250 4850 50  0001 C CNN
	1    14250 4850
	1    0    0    -1  
$EndComp
$Comp
L Device:C C13
U 1 1 5D340072
P 13450 5800
F 0 "C13" V 13485 5605 50  0000 L CNN
F 1 "47µ" V 13495 5845 50  0000 L CNN
F 2 "Capacitor_SMD:C_0805_2012Metric" H 13488 5650 50  0001 C CNN
F 3 "~" H 13450 5800 50  0001 C CNN
	1    13450 5800
	1    0    0    -1  
$EndComp
$Comp
L Device:C C17
U 1 1 5D34105B
P 13650 5800
F 0 "C17" V 13690 5605 50  0000 L CNN
F 1 "4.7µ" V 13700 5840 50  0000 L CNN
F 2 "Capacitor_SMD:C_0805_2012Metric" H 13688 5650 50  0001 C CNN
F 3 "~" H 13650 5800 50  0001 C CNN
	1    13650 5800
	1    0    0    -1  
$EndComp
$Comp
L Device:C C21
U 1 1 5D341787
P 13850 5800
F 0 "C21" V 13900 5615 50  0000 L CNN
F 1 "100n" V 13895 5835 50  0000 L CNN
F 2 "Capacitor_SMD:C_0402_1005Metric" H 13888 5650 50  0001 C CNN
F 3 "~" H 13850 5800 50  0001 C CNN
	1    13850 5800
	1    0    0    -1  
$EndComp
$Comp
L Device:C C25
U 1 1 5D341B08
P 14050 5800
F 0 "C25" V 14095 5615 50  0000 L CNN
F 1 "100n" V 14090 5835 50  0000 L CNN
F 2 "Capacitor_SMD:C_0402_1005Metric" H 14088 5650 50  0001 C CNN
F 3 "~" H 14050 5800 50  0001 C CNN
	1    14050 5800
	1    0    0    -1  
$EndComp
$Comp
L Device:C C28
U 1 1 5D341DA5
P 14250 5800
F 0 "C28" V 14295 5615 50  0000 L CNN
F 1 "100n" V 14295 5840 50  0000 L CNN
F 2 "Capacitor_SMD:C_0402_1005Metric" H 14288 5650 50  0001 C CNN
F 3 "~" H 14250 5800 50  0001 C CNN
	1    14250 5800
	1    0    0    -1  
$EndComp
$Comp
L Device:C C30
U 1 1 5D34212D
P 14450 5800
F 0 "C30" V 14490 5610 50  0000 L CNN
F 1 "100n" V 14490 5835 50  0000 L CNN
F 2 "Capacitor_SMD:C_0402_1005Metric" H 14488 5650 50  0001 C CNN
F 3 "~" H 14450 5800 50  0001 C CNN
	1    14450 5800
	1    0    0    -1  
$EndComp
$Comp
L Device:C C32
U 1 1 5D3425B4
P 14650 5800
F 0 "C32" V 14695 5610 50  0000 L CNN
F 1 "100n" V 14690 5835 50  0000 L CNN
F 2 "Capacitor_SMD:C_0402_1005Metric" H 14688 5650 50  0001 C CNN
F 3 "~" H 14650 5800 50  0001 C CNN
	1    14650 5800
	1    0    0    -1  
$EndComp
$Comp
L power:GND #PWR0178
U 1 1 5D343B72
P 13450 5950
F 0 "#PWR0178" H 13450 5700 50  0001 C CNN
F 1 "GND" H 13455 5777 50  0000 C CNN
F 2 "" H 13450 5950 50  0001 C CNN
F 3 "" H 13450 5950 50  0001 C CNN
	1    13450 5950
	1    0    0    -1  
$EndComp
$Comp
L power:GND #PWR0179
U 1 1 5D343FD6
P 13650 5950
F 0 "#PWR0179" H 13650 5700 50  0001 C CNN
F 1 "GND" H 13655 5777 50  0000 C CNN
F 2 "" H 13650 5950 50  0001 C CNN
F 3 "" H 13650 5950 50  0001 C CNN
	1    13650 5950
	1    0    0    -1  
$EndComp
$Comp
L power:GND #PWR0180
U 1 1 5D34419C
P 13850 5950
F 0 "#PWR0180" H 13850 5700 50  0001 C CNN
F 1 "GND" H 13855 5777 50  0000 C CNN
F 2 "" H 13850 5950 50  0001 C CNN
F 3 "" H 13850 5950 50  0001 C CNN
	1    13850 5950
	1    0    0    -1  
$EndComp
$Comp
L power:GND #PWR0181
U 1 1 5D34437A
P 14050 5950
F 0 "#PWR0181" H 14050 5700 50  0001 C CNN
F 1 "GND" H 14055 5777 50  0000 C CNN
F 2 "" H 14050 5950 50  0001 C CNN
F 3 "" H 14050 5950 50  0001 C CNN
	1    14050 5950
	1    0    0    -1  
$EndComp
$Comp
L power:GND #PWR0182
U 1 1 5D34457A
P 14250 5950
F 0 "#PWR0182" H 14250 5700 50  0001 C CNN
F 1 "GND" H 14255 5777 50  0000 C CNN
F 2 "" H 14250 5950 50  0001 C CNN
F 3 "" H 14250 5950 50  0001 C CNN
	1    14250 5950
	1    0    0    -1  
$EndComp
$Comp
L power:GND #PWR0183
U 1 1 5D34473B
P 14450 5950
F 0 "#PWR0183" H 14450 5700 50  0001 C CNN
F 1 "GND" H 14455 5777 50  0000 C CNN
F 2 "" H 14450 5950 50  0001 C CNN
F 3 "" H 14450 5950 50  0001 C CNN
	1    14450 5950
	1    0    0    -1  
$EndComp
$Comp
L power:GND #PWR0184
U 1 1 5D3448C4
P 14650 5950
F 0 "#PWR0184" H 14650 5700 50  0001 C CNN
F 1 "GND" H 14655 5777 50  0000 C CNN
F 2 "" H 14650 5950 50  0001 C CNN
F 3 "" H 14650 5950 50  0001 C CNN
	1    14650 5950
	1    0    0    -1  
$EndComp
$Comp
L power:GND #PWR0185
U 1 1 5D344A82
P 14850 5950
F 0 "#PWR0185" H 14850 5700 50  0001 C CNN
F 1 "GND" H 14855 5777 50  0000 C CNN
F 2 "" H 14850 5950 50  0001 C CNN
F 3 "" H 14850 5950 50  0001 C CNN
	1    14850 5950
	1    0    0    -1  
$EndComp
$Comp
L power:GND #PWR0186
U 1 1 5D344D08
P 15050 5950
F 0 "#PWR0186" H 15050 5700 50  0001 C CNN
F 1 "GND" H 15055 5777 50  0000 C CNN
F 2 "" H 15050 5950 50  0001 C CNN
F 3 "" H 15050 5950 50  0001 C CNN
	1    15050 5950
	1    0    0    -1  
$EndComp
$Comp
L power:GND #PWR0187
U 1 1 5D344F62
P 15250 5950
F 0 "#PWR0187" H 15250 5700 50  0001 C CNN
F 1 "GND" H 15255 5777 50  0000 C CNN
F 2 "" H 15250 5950 50  0001 C CNN
F 3 "" H 15250 5950 50  0001 C CNN
	1    15250 5950
	1    0    0    -1  
$EndComp
$Comp
L power:+3V3 #PWR0194
U 1 1 5D347836
P 15250 5650
F 0 "#PWR0194" H 15250 5500 50  0001 C CNN
F 1 "+3V3" H 15265 5823 50  0000 C CNN
F 2 "" H 15250 5650 50  0001 C CNN
F 3 "" H 15250 5650 50  0001 C CNN
	1    15250 5650
	1    0    0    -1  
$EndComp
$Comp
L power:+3V3 #PWR0195
U 1 1 5D347B51
P 15050 5650
F 0 "#PWR0195" H 15050 5500 50  0001 C CNN
F 1 "+3V3" H 15065 5823 50  0000 C CNN
F 2 "" H 15050 5650 50  0001 C CNN
F 3 "" H 15050 5650 50  0001 C CNN
	1    15050 5650
	1    0    0    -1  
$EndComp
$Comp
L power:+3V3 #PWR0196
U 1 1 5D347E1D
P 14850 5650
F 0 "#PWR0196" H 14850 5500 50  0001 C CNN
F 1 "+3V3" H 14865 5823 50  0000 C CNN
F 2 "" H 14850 5650 50  0001 C CNN
F 3 "" H 14850 5650 50  0001 C CNN
	1    14850 5650
	1    0    0    -1  
$EndComp
$Comp
L power:+3V3 #PWR0197
U 1 1 5D348074
P 14650 5650
F 0 "#PWR0197" H 14650 5500 50  0001 C CNN
F 1 "+3V3" H 14665 5823 50  0000 C CNN
F 2 "" H 14650 5650 50  0001 C CNN
F 3 "" H 14650 5650 50  0001 C CNN
	1    14650 5650
	1    0    0    -1  
$EndComp
$Comp
L power:+3V3 #PWR0198
U 1 1 5D34831A
P 14450 5650
F 0 "#PWR0198" H 14450 5500 50  0001 C CNN
F 1 "+3V3" H 14465 5823 50  0000 C CNN
F 2 "" H 14450 5650 50  0001 C CNN
F 3 "" H 14450 5650 50  0001 C CNN
	1    14450 5650
	1    0    0    -1  
$EndComp
$Comp
L power:+3V3 #PWR0199
U 1 1 5D348580
P 14250 5650
F 0 "#PWR0199" H 14250 5500 50  0001 C CNN
F 1 "+3V3" H 14265 5823 50  0000 C CNN
F 2 "" H 14250 5650 50  0001 C CNN
F 3 "" H 14250 5650 50  0001 C CNN
	1    14250 5650
	1    0    0    -1  
$EndComp
$Comp
L power:+3V3 #PWR0200
U 1 1 5D348805
P 14050 5650
F 0 "#PWR0200" H 14050 5500 50  0001 C CNN
F 1 "+3V3" H 14065 5823 50  0000 C CNN
F 2 "" H 14050 5650 50  0001 C CNN
F 3 "" H 14050 5650 50  0001 C CNN
	1    14050 5650
	1    0    0    -1  
$EndComp
$Comp
L power:+3V3 #PWR0201
U 1 1 5D348AC9
P 13850 5650
F 0 "#PWR0201" H 13850 5500 50  0001 C CNN
F 1 "+3V3" H 13865 5823 50  0000 C CNN
F 2 "" H 13850 5650 50  0001 C CNN
F 3 "" H 13850 5650 50  0001 C CNN
	1    13850 5650
	1    0    0    -1  
$EndComp
$Comp
L power:+3V3 #PWR0202
U 1 1 5D348DAE
P 13650 5650
F 0 "#PWR0202" H 13650 5500 50  0001 C CNN
F 1 "+3V3" H 13665 5823 50  0000 C CNN
F 2 "" H 13650 5650 50  0001 C CNN
F 3 "" H 13650 5650 50  0001 C CNN
	1    13650 5650
	1    0    0    -1  
$EndComp
$Comp
L power:+3V3 #PWR0203
U 1 1 5D348FBD
P 13450 5650
F 0 "#PWR0203" H 13450 5500 50  0001 C CNN
F 1 "+3V3" H 13465 5823 50  0000 C CNN
F 2 "" H 13450 5650 50  0001 C CNN
F 3 "" H 13450 5650 50  0001 C CNN
	1    13450 5650
	1    0    0    -1  
$EndComp
$Comp
L power:+1V0 #PWR0156
U 1 1 5D2D5544
P 14200 3200
F 0 "#PWR0156" H 14200 3050 50  0001 C CNN
F 1 "+1V0" V 14185 3431 50  0000 C CNN
F 2 "" H 14200 3200 50  0001 C CNN
F 3 "" H 14200 3200 50  0001 C CNN
	1    14200 3200
	1    0    0    -1  
$EndComp
$Comp
L power:+1V0 #PWR0155
U 1 1 5D2D5322
P 14000 3200
F 0 "#PWR0155" H 14000 3050 50  0001 C CNN
F 1 "+1V0" V 13979 3434 50  0000 C CNN
F 2 "" H 14000 3200 50  0001 C CNN
F 3 "" H 14000 3200 50  0001 C CNN
	1    14000 3200
	1    0    0    -1  
$EndComp
$Comp
L power:GND #PWR0147
U 1 1 5D2D27DF
P 14200 3500
F 0 "#PWR0147" H 14200 3250 50  0001 C CNN
F 1 "GND" H 14205 3327 50  0000 C CNN
F 2 "" H 14200 3500 50  0001 C CNN
F 3 "" H 14200 3500 50  0001 C CNN
	1    14200 3500
	1    0    0    -1  
$EndComp
$Comp
L power:GND #PWR0146
U 1 1 5D2D25B7
P 14000 3500
F 0 "#PWR0146" H 14000 3250 50  0001 C CNN
F 1 "GND" H 14005 3327 50  0000 C CNN
F 2 "" H 14000 3500 50  0001 C CNN
F 3 "" H 14000 3500 50  0001 C CNN
	1    14000 3500
	1    0    0    -1  
$EndComp
$Comp
L Device:C C29
U 1 1 5D2CFDE2
P 14200 3350
F 0 "C29" V 14245 3160 50  0000 L CNN
F 1 "100n" V 14250 3395 50  0000 L CNN
F 2 "Capacitor_SMD:C_0402_1005Metric" H 14238 3200 50  0001 C CNN
F 3 "~" H 14200 3350 50  0001 C CNN
	1    14200 3350
	1    0    0    -1  
$EndComp
$Comp
L Device:C C26
U 1 1 5D2CF9FA
P 14000 3350
F 0 "C26" V 14045 3160 50  0000 L CNN
F 1 "100n" V 14050 3390 50  0000 L CNN
F 2 "Capacitor_SMD:C_0402_1005Metric" H 14038 3200 50  0001 C CNN
F 3 "~" H 14000 3350 50  0001 C CNN
	1    14000 3350
	1    0    0    -1  
$EndComp
$Comp
L power:+1V0 #PWR0158
U 1 1 5D2D5BC7
P 14600 3200
F 0 "#PWR0158" H 14600 3050 50  0001 C CNN
F 1 "+1V0" V 14585 3420 50  0000 C CNN
F 2 "" H 14600 3200 50  0001 C CNN
F 3 "" H 14600 3200 50  0001 C CNN
	1    14600 3200
	1    0    0    -1  
$EndComp
$Comp
L power:+1V0 #PWR0157
U 1 1 5D2D58B4
P 14400 3200
F 0 "#PWR0157" H 14400 3050 50  0001 C CNN
F 1 "+1V0" V 14385 3420 50  0000 C CNN
F 2 "" H 14400 3200 50  0001 C CNN
F 3 "" H 14400 3200 50  0001 C CNN
	1    14400 3200
	1    0    0    -1  
$EndComp
$Comp
L power:GND #PWR0149
U 1 1 5D2D2D7E
P 14600 3500
F 0 "#PWR0149" H 14600 3250 50  0001 C CNN
F 1 "GND" H 14605 3327 50  0000 C CNN
F 2 "" H 14600 3500 50  0001 C CNN
F 3 "" H 14600 3500 50  0001 C CNN
	1    14600 3500
	1    0    0    -1  
$EndComp
$Comp
L power:GND #PWR0148
U 1 1 5D2D29DB
P 14400 3500
F 0 "#PWR0148" H 14400 3250 50  0001 C CNN
F 1 "GND" H 14405 3327 50  0000 C CNN
F 2 "" H 14400 3500 50  0001 C CNN
F 3 "" H 14400 3500 50  0001 C CNN
	1    14400 3500
	1    0    0    -1  
$EndComp
$Comp
L Device:C C33
U 1 1 5D2D04E8
P 14600 3350
F 0 "C33" V 14645 3150 50  0000 L CNN
F 1 "100n" V 14645 3390 50  0000 L CNN
F 2 "Capacitor_SMD:C_0402_1005Metric" H 14638 3200 50  0001 C CNN
F 3 "~" H 14600 3350 50  0001 C CNN
	1    14600 3350
	1    0    0    -1  
$EndComp
$Comp
L Device:C C31
U 1 1 5D2D0152
P 14400 3350
F 0 "C31" V 14440 3160 50  0000 L CNN
F 1 "100n" V 14445 3390 50  0000 L CNN
F 2 "Capacitor_SMD:C_0402_1005Metric" H 14438 3200 50  0001 C CNN
F 3 "~" H 14400 3350 50  0001 C CNN
	1    14400 3350
	1    0    0    -1  
$EndComp
$Comp
L Device:C C23
U 1 1 5D2F9DDC
P 14050 4200
F 0 "C23" V 14095 4025 50  0000 L CNN
F 1 "100n" V 14095 4240 50  0000 L CNN
F 2 "Capacitor_SMD:C_0402_1005Metric" H 14088 4050 50  0001 C CNN
F 3 "~" H 14050 4200 50  0001 C CNN
	1    14050 4200
	1    0    0    -1  
$EndComp
$Comp
L Device:C C19
U 1 1 5D2F9AF5
P 13850 4200
F 0 "C19" V 13900 4015 50  0000 L CNN
F 1 "4.7µ" V 13895 4245 50  0000 L CNN
F 2 "Capacitor_SMD:C_0805_2012Metric" H 13888 4050 50  0001 C CNN
F 3 "~" H 13850 4200 50  0001 C CNN
	1    13850 4200
	1    0    0    -1  
$EndComp
$Comp
L power:+1V0 #PWR0159
U 1 1 5D2D5EB5
P 14800 3200
F 0 "#PWR0159" H 14800 3050 50  0001 C CNN
F 1 "+1V0" V 14790 3420 50  0000 C CNN
F 2 "" H 14800 3200 50  0001 C CNN
F 3 "" H 14800 3200 50  0001 C CNN
	1    14800 3200
	1    0    0    -1  
$EndComp
$Comp
L power:GND #PWR0150
U 1 1 5D2D3127
P 14800 3500
F 0 "#PWR0150" H 14800 3250 50  0001 C CNN
F 1 "GND" H 14805 3327 50  0000 C CNN
F 2 "" H 14800 3500 50  0001 C CNN
F 3 "" H 14800 3500 50  0001 C CNN
	1    14800 3500
	1    0    0    -1  
$EndComp
$Comp
L Device:C C35
U 1 1 5D2D07FC
P 14800 3350
F 0 "C35" V 14845 3155 50  0000 L CNN
F 1 "100n" V 14845 3385 50  0000 L CNN
F 2 "Capacitor_SMD:C_0402_1005Metric" H 14838 3200 50  0001 C CNN
F 3 "~" H 14800 3350 50  0001 C CNN
	1    14800 3350
	1    0    0    -1  
$EndComp
$Comp
L power:+1V0 #PWR0153
U 1 1 5D2D4BFC
P 13600 3200
F 0 "#PWR0153" H 13600 3050 50  0001 C CNN
F 1 "+1V0" V 13586 3421 50  0000 C CNN
F 2 "" H 13600 3200 50  0001 C CNN
F 3 "" H 13600 3200 50  0001 C CNN
	1    13600 3200
	1    0    0    -1  
$EndComp
$Comp
L power:+1V0 #PWR0152
U 1 1 5D2D4896
P 13400 3200
F 0 "#PWR0152" H 13400 3050 50  0001 C CNN
F 1 "+1V0" V 13382 3417 50  0000 C CNN
F 2 "" H 13400 3200 50  0001 C CNN
F 3 "" H 13400 3200 50  0001 C CNN
	1    13400 3200
	1    0    0    -1  
$EndComp
$Comp
L power:+1V0 #PWR0151
U 1 1 5D2D45B8
P 13200 3200
F 0 "#PWR0151" H 13200 3050 50  0001 C CNN
F 1 "+1V0" V 13191 3418 50  0000 C CNN
F 2 "" H 13200 3200 50  0001 C CNN
F 3 "" H 13200 3200 50  0001 C CNN
	1    13200 3200
	1    0    0    -1  
$EndComp
$Comp
L power:GND #PWR0144
U 1 1 5D2D2197
P 13600 3500
F 0 "#PWR0144" H 13600 3250 50  0001 C CNN
F 1 "GND" H 13605 3327 50  0000 C CNN
F 2 "" H 13600 3500 50  0001 C CNN
F 3 "" H 13600 3500 50  0001 C CNN
	1    13600 3500
	1    0    0    -1  
$EndComp
$Comp
L power:GND #PWR0143
U 1 1 5D2D200C
P 13400 3500
F 0 "#PWR0143" H 13400 3250 50  0001 C CNN
F 1 "GND" H 13405 3327 50  0000 C CNN
F 2 "" H 13400 3500 50  0001 C CNN
F 3 "" H 13400 3500 50  0001 C CNN
	1    13400 3500
	1    0    0    -1  
$EndComp
$Comp
L power:GND #PWR0142
U 1 1 5D2D1ECD
P 13200 3500
F 0 "#PWR0142" H 13200 3250 50  0001 C CNN
F 1 "GND" H 13205 3327 50  0000 C CNN
F 2 "" H 13200 3500 50  0001 C CNN
F 3 "" H 13200 3500 50  0001 C CNN
	1    13200 3500
	1    0    0    -1  
$EndComp
$Comp
L Device:C C18
U 1 1 5D2CF42A
P 13600 3350
F 0 "C18" V 13645 3160 50  0000 L CNN
F 1 "4.7µ" V 13645 3385 50  0000 L CNN
F 2 "Capacitor_SMD:C_0805_2012Metric" H 13638 3200 50  0001 C CNN
F 3 "~" H 13600 3350 50  0001 C CNN
	1    13600 3350
	1    0    0    -1  
$EndComp
$Comp
L Device:C C14
U 1 1 5D2CEFC6
P 13400 3350
F 0 "C14" V 13440 3160 50  0000 L CNN
F 1 "4.7µ" V 13445 3385 50  0000 L CNN
F 2 "Capacitor_SMD:C_0805_2012Metric" H 13438 3200 50  0001 C CNN
F 3 "~" H 13400 3350 50  0001 C CNN
	1    13400 3350
	1    0    0    -1  
$EndComp
$Comp
L Device:C C34
U 1 1 5D3428DB
P 14850 5800
F 0 "C34" V 14890 5610 50  0000 L CNN
F 1 "100n" V 14890 5840 50  0000 L CNN
F 2 "Capacitor_SMD:C_0402_1005Metric" H 14888 5650 50  0001 C CNN
F 3 "~" H 14850 5800 50  0001 C CNN
	1    14850 5800
	1    0    0    -1  
$EndComp
$Comp
L Device:C C36
U 1 1 5D342BED
P 15050 5800
F 0 "C36" V 15095 5610 50  0000 L CNN
F 1 "100n" V 15095 5835 50  0000 L CNN
F 2 "Capacitor_SMD:C_0402_1005Metric" H 15088 5650 50  0001 C CNN
F 3 "~" H 15050 5800 50  0001 C CNN
	1    15050 5800
	1    0    0    -1  
$EndComp
$Comp
L Device:C C37
U 1 1 5D342F75
P 15250 5800
F 0 "C37" V 15285 5610 50  0000 L CNN
F 1 "100n" V 15295 5830 50  0000 L CNN
F 2 "Capacitor_SMD:C_0402_1005Metric" H 15288 5650 50  0001 C CNN
F 3 "~" H 15250 5800 50  0001 C CNN
	1    15250 5800
	1    0    0    -1  
$EndComp
$Comp
L Device:C C10
U 1 1 5D2D0AD0
P 13200 3350
F 0 "C10" V 13245 3165 50  0000 L CNN
F 1 "47µ" V 13250 3390 50  0000 L CNN
F 2 "Capacitor_SMD:C_0805_2012Metric" H 13238 3200 50  0001 C CNN
F 3 "~" H 13200 3350 50  0001 C CNN
	1    13200 3350
	1    0    0    -1  
$EndComp
$Comp
L power:+1V0 #PWR0160
U 1 1 5C9E8E8F
P 15000 3200
F 0 "#PWR0160" H 15000 3050 50  0001 C CNN
F 1 "+1V0" V 14985 3420 50  0000 C CNN
F 2 "" H 15000 3200 50  0001 C CNN
F 3 "" H 15000 3200 50  0001 C CNN
	1    15000 3200
	1    0    0    -1  
$EndComp
$Comp
L power:GND #PWR0164
U 1 1 5C9E8E95
P 15000 3500
F 0 "#PWR0164" H 15000 3250 50  0001 C CNN
F 1 "GND" H 15005 3327 50  0000 C CNN
F 2 "" H 15000 3500 50  0001 C CNN
F 3 "" H 15000 3500 50  0001 C CNN
	1    15000 3500
	1    0    0    -1  
$EndComp
$Comp
L Device:C C41
U 1 1 5C9E8E9B
P 15000 3350
F 0 "C41" V 15045 3150 50  0000 L CNN
F 1 "100n" V 15045 3390 50  0000 L CNN
F 2 "Capacitor_SMD:C_0402_1005Metric" H 15038 3200 50  0001 C CNN
F 3 "~" H 15000 3350 50  0001 C CNN
	1    15000 3350
	1    0    0    -1  
$EndComp
$Comp
L power:+1V0 #PWR0204
U 1 1 5C9E8EA1
P 15200 3200
F 0 "#PWR0204" H 15200 3050 50  0001 C CNN
F 1 "+1V0" V 15190 3420 50  0000 C CNN
F 2 "" H 15200 3200 50  0001 C CNN
F 3 "" H 15200 3200 50  0001 C CNN
	1    15200 3200
	1    0    0    -1  
$EndComp
$Comp
L power:GND #PWR0205
U 1 1 5C9E8EA7
P 15200 3500
F 0 "#PWR0205" H 15200 3250 50  0001 C CNN
F 1 "GND" H 15205 3327 50  0000 C CNN
F 2 "" H 15200 3500 50  0001 C CNN
F 3 "" H 15200 3500 50  0001 C CNN
	1    15200 3500
	1    0    0    -1  
$EndComp
$Comp
L Device:C C42
U 1 1 5C9E8EAD
P 15200 3350
F 0 "C42" V 15245 3155 50  0000 L CNN
F 1 "100n" V 15245 3385 50  0000 L CNN
F 2 "Capacitor_SMD:C_0402_1005Metric" H 15238 3200 50  0001 C CNN
F 3 "~" H 15200 3350 50  0001 C CNN
	1    15200 3350
	1    0    0    -1  
$EndComp
$Comp
L power:GND #PWR0206
U 1 1 5CA223D0
P 14250 4350
F 0 "#PWR0206" H 14250 4100 50  0001 C CNN
F 1 "GND" H 14255 4177 50  0000 C CNN
F 2 "" H 14250 4350 50  0001 C CNN
F 3 "" H 14250 4350 50  0001 C CNN
	1    14250 4350
	1    0    0    -1  
$EndComp
$Comp
L power:+1V0 #PWR0207
U 1 1 5CA223DA
P 14250 4050
F 0 "#PWR0207" H 14250 3900 50  0001 C CNN
F 1 "+1V0" H 14265 4223 50  0000 C CNN
F 2 "" H 14250 4050 50  0001 C CNN
F 3 "" H 14250 4050 50  0001 C CNN
	1    14250 4050
	1    0    0    -1  
$EndComp
$Comp
L Device:C C11
U 1 1 5CA223E4
P 14250 4200
F 0 "C11" V 14295 4025 50  0000 L CNN
F 1 "100n" V 14295 4240 50  0000 L CNN
F 2 "Capacitor_SMD:C_0402_1005Metric" H 14288 4050 50  0001 C CNN
F 3 "~" H 14250 4200 50  0001 C CNN
	1    14250 4200
	1    0    0    -1  
$EndComp
$Comp
L Device:C C22
U 1 1 5D2CF6F8
P 13800 3350
F 0 "C22" V 13845 3165 50  0000 L CNN
F 1 "1µ" V 13850 3395 50  0000 L CNN
F 2 "Capacitor_SMD:C_0805_2012Metric" H 13838 3200 50  0001 C CNN
F 3 "~" H 13800 3350 50  0001 C CNN
	1    13800 3350
	1    0    0    -1  
$EndComp
$Comp
L power:GND #PWR0145
U 1 1 5D2D23CE
P 13800 3500
F 0 "#PWR0145" H 13800 3250 50  0001 C CNN
F 1 "GND" H 13805 3327 50  0000 C CNN
F 2 "" H 13800 3500 50  0001 C CNN
F 3 "" H 13800 3500 50  0001 C CNN
	1    13800 3500
	1    0    0    -1  
$EndComp
$Comp
L power:+1V0 #PWR0154
U 1 1 5D2D4F87
P 13800 3200
F 0 "#PWR0154" H 13800 3050 50  0001 C CNN
F 1 "+1V0" V 13782 3427 50  0000 C CNN
F 2 "" H 13800 3200 50  0001 C CNN
F 3 "" H 13800 3200 50  0001 C CNN
	1    13800 3200
	1    0    0    -1  
$EndComp
$Comp
L power:+1V0 #PWR0208
U 1 1 5CB55587
P 15400 3200
F 0 "#PWR0208" H 15400 3050 50  0001 C CNN
F 1 "+1V0" V 15390 3420 50  0000 C CNN
F 2 "" H 15400 3200 50  0001 C CNN
F 3 "" H 15400 3200 50  0001 C CNN
	1    15400 3200
	1    0    0    -1  
$EndComp
$Comp
L power:GND #PWR0209
U 1 1 5CB55591
P 15400 3500
F 0 "#PWR0209" H 15400 3250 50  0001 C CNN
F 1 "GND" H 15405 3327 50  0000 C CNN
F 2 "" H 15400 3500 50  0001 C CNN
F 3 "" H 15400 3500 50  0001 C CNN
	1    15400 3500
	1    0    0    -1  
$EndComp
$Comp
L Device:C C43
U 1 1 5CB5559B
P 15400 3350
F 0 "C43" V 15445 3155 50  0000 L CNN
F 1 "100n" V 15445 3385 50  0000 L CNN
F 2 "Capacitor_SMD:C_0402_1005Metric" H 15438 3200 50  0001 C CNN
F 3 "~" H 15400 3350 50  0001 C CNN
	1    15400 3350
	1    0    0    -1  
$EndComp
$Comp
L power:+1V0 #PWR0210
U 1 1 5CB79494
P 15600 3200
F 0 "#PWR0210" H 15600 3050 50  0001 C CNN
F 1 "+1V0" V 15590 3420 50  0000 C CNN
F 2 "" H 15600 3200 50  0001 C CNN
F 3 "" H 15600 3200 50  0001 C CNN
	1    15600 3200
	1    0    0    -1  
$EndComp
$Comp
L power:GND #PWR0211
U 1 1 5CB7949E
P 15600 3500
F 0 "#PWR0211" H 15600 3250 50  0001 C CNN
F 1 "GND" H 15605 3327 50  0000 C CNN
F 2 "" H 15600 3500 50  0001 C CNN
F 3 "" H 15600 3500 50  0001 C CNN
	1    15600 3500
	1    0    0    -1  
$EndComp
$Comp
L Device:C C44
U 1 1 5CB794A8
P 15600 3350
F 0 "C44" V 15645 3155 50  0000 L CNN
F 1 "100n" V 15645 3385 50  0000 L CNN
F 2 "Capacitor_SMD:C_0402_1005Metric" H 15638 3200 50  0001 C CNN
F 3 "~" H 15600 3350 50  0001 C CNN
	1    15600 3350
	1    0    0    -1  
$EndComp
$Comp
L power:+1V0 #PWR0188
U 1 1 5CCD6235
P 15800 3200
F 0 "#PWR0188" H 15800 3050 50  0001 C CNN
F 1 "+1V0" V 15790 3420 50  0000 C CNN
F 2 "" H 15800 3200 50  0001 C CNN
F 3 "" H 15800 3200 50  0001 C CNN
	1    15800 3200
	1    0    0    -1  
$EndComp
$Comp
L power:GND #PWR0189
U 1 1 5CCD623F
P 15800 3500
F 0 "#PWR0189" H 15800 3250 50  0001 C CNN
F 1 "GND" H 15805 3327 50  0000 C CNN
F 2 "" H 15800 3500 50  0001 C CNN
F 3 "" H 15800 3500 50  0001 C CNN
	1    15800 3500
	1    0    0    -1  
$EndComp
$Comp
L Device:C C38
U 1 1 5CCD6249
P 15800 3350
F 0 "C38" V 15845 3155 50  0000 L CNN
F 1 "100n" V 15845 3385 50  0000 L CNN
F 2 "Capacitor_SMD:C_0402_1005Metric" H 15838 3200 50  0001 C CNN
F 3 "~" H 15800 3350 50  0001 C CNN
	1    15800 3350
	1    0    0    -1  
$EndComp
$Comp
L Oscillator:XO32 X1
U 1 1 5CEFFEBA
P 11250 1450
F 0 "X1" H 11350 1700 50  0000 L CNN
F 1 "XO32-12MHz" H 11350 1200 50  0000 L CNN
F 2 "Oscillator:Oscillator_SMD_EuroQuartz_XO32-4Pin_3.2x2.5mm" H 11950 1100 50  0001 C CNN
F 3 "http://cdn-reichelt.de/documents/datenblatt/B400/XO32.pdf" H 11150 1450 50  0001 C CNN
	1    11250 1450
	1    0    0    -1  
$EndComp
$Comp
L power:GND #PWR0190
U 1 1 5CF01DDC
P 11250 1850
F 0 "#PWR0190" H 11250 1600 50  0001 C CNN
F 1 "GND" H 11255 1677 50  0000 C CNN
F 2 "" H 11250 1850 50  0001 C CNN
F 3 "" H 11250 1850 50  0001 C CNN
	1    11250 1850
	1    0    0    -1  
$EndComp
$Comp
L power:+3V3 #PWR0191
U 1 1 5CF03689
P 11250 1050
F 0 "#PWR0191" H 11250 900 50  0001 C CNN
F 1 "+3V3" H 11265 1223 50  0000 C CNN
F 2 "" H 11250 1050 50  0001 C CNN
F 3 "" H 11250 1050 50  0001 C CNN
	1    11250 1050
	1    0    0    -1  
$EndComp
$Comp
L power:+3V3 #PWR0192
U 1 1 5CF03AB7
P 10900 1400
F 0 "#PWR0192" H 10900 1250 50  0001 C CNN
F 1 "+3V3" H 10915 1573 50  0000 C CNN
F 2 "" H 10900 1400 50  0001 C CNN
F 3 "" H 10900 1400 50  0001 C CNN
	1    10900 1400
	1    0    0    -1  
$EndComp
Wire Wire Line
	10900 1400 10900 1450
Wire Wire Line
	10900 1450 10950 1450
$Comp
L Device:C C39
U 1 1 5CF21C3E
P 10750 1500
F 0 "C39" V 10498 1500 50  0000 C CNN
F 1 "100n" V 10589 1500 50  0000 C CNN
F 2 "Capacitor_SMD:C_0402_1005Metric" H 10788 1350 50  0001 C CNN
F 3 "~" H 10750 1500 50  0001 C CNN
	1    10750 1500
	1    0    0    -1  
$EndComp
Wire Wire Line
	11250 1050 11250 1100
Wire Wire Line
	11250 1100 10750 1100
Wire Wire Line
	10750 1100 10750 1350
Connection ~ 11250 1100
Wire Wire Line
	11250 1100 11250 1150
Wire Wire Line
	11250 1750 11250 1800
Wire Wire Line
	10750 1650 10750 1800
Wire Wire Line
	10750 1800 11250 1800
Connection ~ 11250 1800
Wire Wire Line
	11250 1800 11250 1850
Wire Wire Line
	5850 2650 5600 2650
Text Label 5750 2650 2    50   ~ 0
CLK_12M
Text Label 11900 1450 0    50   ~ 0
CLK_12M
$Comp
L Device:R R11
U 1 1 5C9675A0
P 11750 1450
F 0 "R11" V 11665 1375 50  0000 C CNN
F 1 "33R" V 11665 1545 50  0000 C CNN
F 2 "Resistor_SMD:R_0402_1005Metric" V 11680 1450 50  0001 C CNN
F 3 "~" H 11750 1450 50  0001 C CNN
	1    11750 1450
	0    1    1    0   
$EndComp
Wire Wire Line
	11550 1450 11600 1450
Wire Wire Line
	11900 1450 12150 1450
Wire Wire Line
	7950 1700 7650 1700
Text Label 7900 1700 2    50   ~ 0
TDO_M1
Wire Wire Line
	7950 1800 7650 1800
Text Label 7650 1800 0    50   ~ 0
nTRST
Wire Wire Line
	7950 2300 7650 2300
Text Label 7900 2400 2    50   ~ 0
I2C_SCL
Wire Wire Line
	7950 2400 7650 2400
Text Label 7900 2200 2    50   ~ 0
I2C_SDA
Wire Wire Line
	7950 2500 7650 2500
Text Label 7900 2500 2    50   ~ 0
TDI_M1
Wire Wire Line
	1150 5350 1450 5350
Wire Wire Line
	1450 5450 1150 5450
Wire Wire Line
	1450 5550 1150 5550
Wire Wire Line
	1450 5650 1150 5650
Wire Wire Line
	1450 5750 1150 5750
Wire Wire Line
	1450 5850 1150 5850
Wire Wire Line
	1450 5950 1150 5950
Wire Wire Line
	1450 6050 1150 6050
Text Label 1400 6050 2    50   ~ 0
IN3
Wire Wire Line
	5850 7450 6150 7450
Text Label 11550 6900 0    50   ~ 0
SPI1_MOSI
Wire Wire Line
	7950 3100 7650 3100
Text Label 7900 3100 2    50   ~ 0
SWD_CLK
Text Label 7900 3900 2    50   ~ 0
RESET
Wire Wire Line
	1450 6650 1150 6650
$Comp
L iccfpga-rescue:MPCIE-Socket-mpcie-iccfpga-rescue U5
U 1 1 5C988D75
P 10850 7650
F 0 "U5" H 10850 9193 60  0000 C CNN
F 1 "MPCIE-Socket" H 10850 9087 60  0000 C CNN
F 2 "mpcie:mpcie-half-card" H 10850 8981 60  0000 C CNN
F 3 "" H 10950 6650 60  0000 C CNN
F 4 "NA" H 10850 7650 50  0001 C CNN "Distributor"
	1    10850 7650
	1    0    0    -1  
$EndComp
$Comp
L power:GND #PWR0193
U 1 1 5CA04261
P 10150 6900
F 0 "#PWR0193" H 10150 6650 50  0001 C CNN
F 1 "GND" V 10155 6772 50  0000 R CNN
F 2 "" H 10150 6900 50  0001 C CNN
F 3 "" H 10150 6900 50  0001 C CNN
	1    10150 6900
	0    1    1    0   
$EndComp
$Comp
L power:GND #PWR0212
U 1 1 5CA04695
P 10150 7200
F 0 "#PWR0212" H 10150 6950 50  0001 C CNN
F 1 "GND" V 10155 7072 50  0000 R CNN
F 2 "" H 10150 7200 50  0001 C CNN
F 3 "" H 10150 7200 50  0001 C CNN
	1    10150 7200
	0    1    1    0   
$EndComp
$Comp
L power:GND #PWR0213
U 1 1 5CA049E4
P 10150 7300
F 0 "#PWR0213" H 10150 7050 50  0001 C CNN
F 1 "GND" V 10155 7172 50  0000 R CNN
F 2 "" H 10150 7300 50  0001 C CNN
F 3 "" H 10150 7300 50  0001 C CNN
	1    10150 7300
	0    1    1    0   
$EndComp
$Comp
L power:GND #PWR0214
U 1 1 5CA04C38
P 10150 7600
F 0 "#PWR0214" H 10150 7350 50  0001 C CNN
F 1 "GND" V 10155 7472 50  0000 R CNN
F 2 "" H 10150 7600 50  0001 C CNN
F 3 "" H 10150 7600 50  0001 C CNN
	1    10150 7600
	0    1    1    0   
$EndComp
$Comp
L power:GND #PWR0217
U 1 1 5CA05468
P 10150 8400
F 0 "#PWR0217" H 10150 8150 50  0001 C CNN
F 1 "GND" V 10155 8272 50  0000 R CNN
F 2 "" H 10150 8400 50  0001 C CNN
F 3 "" H 10150 8400 50  0001 C CNN
	1    10150 8400
	0    1    1    0   
$EndComp
$Comp
L power:GND #PWR0218
U 1 1 5CA0575F
P 10150 8700
F 0 "#PWR0218" H 10150 8450 50  0001 C CNN
F 1 "GND" V 10155 8572 50  0000 R CNN
F 2 "" H 10150 8700 50  0001 C CNN
F 3 "" H 10150 8700 50  0001 C CNN
	1    10150 8700
	0    1    1    0   
$EndComp
$Comp
L power:GND #PWR0219
U 1 1 5CA05B90
P 11550 9000
F 0 "#PWR0219" H 11550 8750 50  0001 C CNN
F 1 "GND" V 11555 8872 50  0000 R CNN
F 2 "" H 11550 9000 50  0001 C CNN
F 3 "" H 11550 9000 50  0001 C CNN
	1    11550 9000
	0    -1   -1   0   
$EndComp
$Comp
L power:GND #PWR0220
U 1 1 5CA061B6
P 11550 8200
F 0 "#PWR0220" H 11550 7950 50  0001 C CNN
F 1 "GND" V 11555 8072 50  0000 R CNN
F 2 "" H 11550 8200 50  0001 C CNN
F 3 "" H 11550 8200 50  0001 C CNN
	1    11550 8200
	0    -1   -1   0   
$EndComp
$Comp
L power:GND #PWR0221
U 1 1 5CA068BC
P 11550 7800
F 0 "#PWR0221" H 11550 7550 50  0001 C CNN
F 1 "GND" V 11555 7672 50  0000 R CNN
F 2 "" H 11550 7800 50  0001 C CNN
F 3 "" H 11550 7800 50  0001 C CNN
	1    11550 7800
	0    -1   -1   0   
$EndComp
$Comp
L power:GND #PWR0222
U 1 1 5CA06E70
P 11550 7100
F 0 "#PWR0222" H 11550 6850 50  0001 C CNN
F 1 "GND" V 11555 6972 50  0000 R CNN
F 2 "" H 11550 7100 50  0001 C CNN
F 3 "" H 11550 7100 50  0001 C CNN
	1    11550 7100
	0    -1   -1   0   
$EndComp
$Comp
L power:GND #PWR0223
U 1 1 5CA072B6
P 11550 7400
F 0 "#PWR0223" H 11550 7150 50  0001 C CNN
F 1 "GND" V 11555 7272 50  0000 R CNN
F 2 "" H 11550 7400 50  0001 C CNN
F 3 "" H 11550 7400 50  0001 C CNN
	1    11550 7400
	0    -1   -1   0   
$EndComp
$Comp
L power:GND #PWR0224
U 1 1 5CA075C0
P 11550 6600
F 0 "#PWR0224" H 11550 6350 50  0001 C CNN
F 1 "GND" V 11555 6472 50  0000 R CNN
F 2 "" H 11550 6600 50  0001 C CNN
F 3 "" H 11550 6600 50  0001 C CNN
	1    11550 6600
	0    -1   -1   0   
$EndComp
$Comp
L power:+3V3 #PWR0225
U 1 1 5CA093D9
P 11550 6500
F 0 "#PWR0225" H 11550 6350 50  0001 C CNN
F 1 "+3V3" V 11565 6628 50  0000 L CNN
F 2 "" H 11550 6500 50  0001 C CNN
F 3 "" H 11550 6500 50  0001 C CNN
	1    11550 6500
	0    1    1    0   
$EndComp
$Comp
L power:+3V3 #PWR0226
U 1 1 5CA09B20
P 11550 7900
F 0 "#PWR0226" H 11550 7750 50  0001 C CNN
F 1 "+3V3" V 11565 8028 50  0000 L CNN
F 2 "" H 11550 7900 50  0001 C CNN
F 3 "" H 11550 7900 50  0001 C CNN
	1    11550 7900
	0    1    1    0   
$EndComp
$Comp
L power:+3V3 #PWR0227
U 1 1 5CA0A628
P 11550 9100
F 0 "#PWR0227" H 11550 8950 50  0001 C CNN
F 1 "+3V3" V 11565 9228 50  0000 L CNN
F 2 "" H 11550 9100 50  0001 C CNN
F 3 "" H 11550 9100 50  0001 C CNN
	1    11550 9100
	0    1    1    0   
$EndComp
$Comp
L power:+3V3 #PWR0228
U 1 1 5CA0B011
P 10150 7000
F 0 "#PWR0228" H 10150 6850 50  0001 C CNN
F 1 "+3V3" V 10165 7128 50  0000 L CNN
F 2 "" H 10150 7000 50  0001 C CNN
F 3 "" H 10150 7000 50  0001 C CNN
	1    10150 7000
	0    -1   -1   0   
$EndComp
$Comp
L power:+3V3 #PWR0229
U 1 1 5CA0BDD9
P 10150 7100
F 0 "#PWR0229" H 10150 6950 50  0001 C CNN
F 1 "+3V3" V 10165 7228 50  0000 L CNN
F 2 "" H 10150 7100 50  0001 C CNN
F 3 "" H 10150 7100 50  0001 C CNN
	1    10150 7100
	0    -1   -1   0   
$EndComp
Wire Wire Line
	7950 3400 7650 3400
Text Label 7900 3400 2    50   ~ 0
SWD_IO
Wire Wire Line
	7950 3300 7650 3300
Text Label 7900 3300 2    50   ~ 0
SWD_RESET
Wire Wire Line
	7950 4000 7700 4000
Text Label 7900 4000 2    50   ~ 0
W5500_MOSI
Wire Wire Line
	1450 6850 1150 6850
Text Label 1400 6850 2    50   ~ 0
W5500_MISO
Wire Wire Line
	1450 6350 1150 6350
Text Label 1400 6350 2    50   ~ 0
W5500_SCK
Wire Wire Line
	1450 6250 1150 6250
Wire Wire Line
	1450 7050 1150 7050
Text Label 1400 7050 2    50   ~ 0
W5500_SS
Wire Wire Line
	1450 7250 1150 7250
Wire Wire Line
	1450 6550 1150 6550
Wire Wire Line
	1450 5250 1150 5250
Wire Wire Line
	7950 2100 7650 2100
Wire Wire Line
	7950 2200 7650 2200
Text Label 7700 2300 0    50   ~ 0
IO11
Wire Wire Line
	11550 8800 11950 8800
Wire Wire Line
	11550 8700 11950 8700
Wire Wire Line
	11550 8600 11950 8600
Wire Wire Line
	11550 8500 11950 8500
Wire Wire Line
	11550 8400 11950 8400
Text Label 11550 8800 0    50   ~ 0
W5500_MOSI
Text Label 11550 8700 0    50   ~ 0
W5500_MISO
Text Label 11550 8600 0    50   ~ 0
W5500_SCK
Text Label 11550 8500 0    50   ~ 0
W5500_SS
Wire Wire Line
	11550 8100 11900 8100
Text Label 11550 8000 0    50   ~ 0
TMS
Wire Wire Line
	11550 8000 11900 8000
Text Label 11550 8100 0    50   ~ 0
TCK
Wire Wire Line
	5850 6450 6150 6450
$Comp
L power:GND #PWR0230
U 1 1 5D1530EF
P 7700 7000
F 0 "#PWR0230" H 7700 6750 50  0001 C CNN
F 1 "GND" V 7705 6872 50  0000 R CNN
F 2 "" H 7700 7000 50  0001 C CNN
F 3 "" H 7700 7000 50  0001 C CNN
	1    7700 7000
	1    0    0    -1  
$EndComp
$Comp
L power:+3V3 #PWR0231
U 1 1 5D153865
P 7700 6100
F 0 "#PWR0231" H 7700 5950 50  0001 C CNN
F 1 "+3V3" V 7715 6228 50  0000 L CNN
F 2 "" H 7700 6100 50  0001 C CNN
F 3 "" H 7700 6100 50  0001 C CNN
	1    7700 6100
	-1   0    0    -1  
$EndComp
$Comp
L Device:R R12
U 1 1 5D154D60
P 6900 5500
F 0 "R12" V 6815 5425 50  0000 C CNN
F 1 "330" V 6815 5595 50  0000 C CNN
F 2 "Resistor_SMD:R_0402_1005Metric" V 6830 5500 50  0001 C CNN
F 3 "~" H 6900 5500 50  0001 C CNN
	1    6900 5500
	-1   0    0    1   
$EndComp
$Comp
L power:+3V3 #PWR0232
U 1 1 5D155B2C
P 6900 5350
F 0 "#PWR0232" H 6900 5200 50  0001 C CNN
F 1 "+3V3" V 6890 5545 50  0000 C CNN
F 2 "" H 6900 5350 50  0001 C CNN
F 3 "" H 6900 5350 50  0001 C CNN
	1    6900 5350
	1    0    0    -1  
$EndComp
$Comp
L Device:R R15
U 1 1 5D18752A
P 13600 1050
F 0 "R15" V 13515 975 50  0000 C CNN
F 1 "2k4" V 13515 1145 50  0000 C CNN
F 2 "Resistor_SMD:R_0402_1005Metric" V 13530 1050 50  0001 C CNN
F 3 "~" H 13600 1050 50  0001 C CNN
	1    13600 1050
	-1   0    0    1   
$EndComp
Wire Wire Line
	13600 1200 13600 1250
Connection ~ 13600 1250
$Comp
L power:+3V3 #PWR0233
U 1 1 5D1B9B29
P 13600 850
F 0 "#PWR0233" H 13600 700 50  0001 C CNN
F 1 "+3V3" H 13615 1023 50  0000 C CNN
F 2 "" H 13600 850 50  0001 C CNN
F 3 "" H 13600 850 50  0001 C CNN
	1    13600 850 
	1    0    0    -1  
$EndComp
Wire Wire Line
	13600 850  13600 900 
$Comp
L Device:R R14
U 1 1 5D1EB220
P 13450 1050
F 0 "R14" V 13365 975 50  0000 C CNN
F 1 "4k7" V 13365 1145 50  0000 C CNN
F 2 "Resistor_SMD:R_0402_1005Metric" V 13380 1050 50  0001 C CNN
F 3 "~" H 13450 1050 50  0001 C CNN
	1    13450 1050
	-1   0    0    1   
$EndComp
$Comp
L Device:R R16
U 1 1 5D1EB5F8
P 14950 1050
F 0 "R16" V 14865 975 50  0000 C CNN
F 1 "4k7" V 14865 1145 50  0000 C CNN
F 2 "Resistor_SMD:R_0402_1005Metric" V 14880 1050 50  0001 C CNN
F 3 "~" H 14950 1050 50  0001 C CNN
	1    14950 1050
	-1   0    0    1   
$EndComp
Wire Wire Line
	12950 1250 13600 1250
Wire Wire Line
	12950 1350 13700 1350
Wire Wire Line
	12950 1450 13450 1450
Wire Wire Line
	13450 1200 13450 1450
Connection ~ 13450 1450
Wire Wire Line
	13450 1450 13700 1450
Wire Wire Line
	14650 1350 14950 1350
Wire Wire Line
	14650 1450 15250 1450
Wire Wire Line
	14650 1550 15250 1550
Wire Wire Line
	14950 1200 14950 1350
Connection ~ 14950 1350
Wire Wire Line
	14950 1350 15250 1350
$Comp
L power:+3V3 #PWR0234
U 1 1 5D3A2DDD
P 14950 850
F 0 "#PWR0234" H 14950 700 50  0001 C CNN
F 1 "+3V3" H 14965 1023 50  0000 C CNN
F 2 "" H 14950 850 50  0001 C CNN
F 3 "" H 14950 850 50  0001 C CNN
	1    14950 850 
	1    0    0    -1  
$EndComp
$Comp
L power:+3V3 #PWR0235
U 1 1 5D3A3443
P 13450 850
F 0 "#PWR0235" H 13450 700 50  0001 C CNN
F 1 "+3V3" H 13465 1023 50  0000 C CNN
F 2 "" H 13450 850 50  0001 C CNN
F 3 "" H 13450 850 50  0001 C CNN
	1    13450 850 
	1    0    0    -1  
$EndComp
Wire Wire Line
	13450 850  13450 900 
Wire Wire Line
	14950 850  14950 900 
Connection ~ 6600 6950
Wire Wire Line
	6300 5850 7050 5850
Wire Wire Line
	6400 5950 7050 5950
Wire Wire Line
	5850 6050 7050 6050
Wire Wire Line
	5850 6150 7050 6150
Wire Wire Line
	6200 6750 7050 6750
Wire Wire Line
	6600 6950 7050 6950
Wire Wire Line
	6900 6850 7050 6850
Connection ~ 6900 6850
Wire Wire Line
	6900 5650 6900 6850
NoConn ~ 7650 1700
NoConn ~ 7650 1800
NoConn ~ 7650 2500
$Comp
L Device:R R13
U 1 1 5D7F453D
P 6900 7300
F 0 "R13" V 6815 7225 50  0000 C CNN
F 1 "330" V 6815 7395 50  0000 C CNN
F 2 "Resistor_SMD:R_0402_1005Metric" V 6830 7300 50  0001 C CNN
F 3 "~" H 6900 7300 50  0001 C CNN
	1    6900 7300
	-1   0    0    1   
$EndComp
Wire Wire Line
	6900 7150 6900 6850
Wire Wire Line
	6900 7450 6900 7500
$Comp
L power:GND #PWR0236
U 1 1 5D85AFBC
P 6900 7800
F 0 "#PWR0236" H 6900 7550 50  0001 C CNN
F 1 "GND" H 6905 7627 50  0000 C CNN
F 2 "" H 6900 7800 50  0001 C CNN
F 3 "" H 6900 7800 50  0001 C CNN
	1    6900 7800
	1    0    0    -1  
$EndComp
$Comp
L Device:LED D1
U 1 1 5D88E2B6
P 6900 7650
F 0 "D1" V 6939 7533 50  0000 R CNN
F 1 "LED" V 6848 7533 50  0000 R CNN
F 2 "LED_SMD:LED_0603_1608Metric" H 6900 7650 50  0001 C CNN
F 3 "~" H 6900 7650 50  0001 C CNN
	1    6900 7650
	0    -1   -1   0   
$EndComp
NoConn ~ 7050 6850
NoConn ~ 7050 6950
Wire Wire Line
	11550 7700 11900 7700
Wire Wire Line
	11550 7600 11900 7600
Wire Wire Line
	5850 7350 6150 7350
Wire Wire Line
	11550 7500 11900 7500
Wire Wire Line
	11550 7300 11900 7300
Wire Wire Line
	11550 7200 11900 7200
Text Label 11550 7500 0    50   ~ 0
IN3
Wire Wire Line
	1450 5150 1150 5150
Wire Wire Line
	11550 7000 11900 7000
Wire Wire Line
	11550 6900 11900 6900
Wire Wire Line
	11550 6800 11900 6800
Text Label 11550 8400 0    50   ~ 0
W5500_RSTN
Text Label 1400 6650 2    50   ~ 0
W5500_RSTN
Text Label 1400 6250 2    50   ~ 0
W5500_INTN
Text Label 1400 7250 2    50   ~ 0
RXD
Text Label 1400 6550 2    50   ~ 0
TXD
Wire Wire Line
	5850 6850 6600 6850
Text Label 6100 7350 2    50   ~ 0
IN2
Text Label 10150 7500 2    50   ~ 0
IN2
Text Label 11550 7700 0    50   ~ 0
IN0
Text Label 1400 5950 2    50   ~ 0
IN0
Text Label 11550 7600 0    50   ~ 0
IN1
Text Label 1400 5750 2    50   ~ 0
IN1
Text Label 1400 5850 2    50   ~ 0
OUT0
Text Label 10150 7400 2    50   ~ 0
OUT0
Text Label 1400 5150 2    50   ~ 0
OUT1
Text Label 11550 7300 0    50   ~ 0
OUT1
Text Label 1400 5550 2    50   ~ 0
OUT2
Text Label 11550 7200 0    50   ~ 0
OUT2
Text Label 1400 5250 2    50   ~ 0
OUT3
Text Label 11550 7000 0    50   ~ 0
OUT3
Text Label 1400 5650 2    50   ~ 0
SPI1_MOSI
Text Label 11550 6800 0    50   ~ 0
SPI1_MISO
Text Label 1400 5350 2    50   ~ 0
SPI1_MISO
Text Label 10150 6800 2    50   ~ 0
SPI1_SCK
Text Label 7900 2100 2    50   ~ 0
SPI1_SCK
Text Label 10150 6700 2    50   ~ 0
SPI1_SS
Text Label 1400 5450 2    50   ~ 0
SPI1_SS
Wire Wire Line
	6600 6850 6900 6850
$Comp
L power:GND #PWR0215
U 1 1 5CA04EA1
P 10150 7700
F 0 "#PWR0215" H 10150 7450 50  0001 C CNN
F 1 "GND" V 10155 7572 50  0000 R CNN
F 2 "" H 10150 7700 50  0001 C CNN
F 3 "" H 10150 7700 50  0001 C CNN
	1    10150 7700
	0    1    1    0   
$EndComp
Text Label 10150 7800 2    50   ~ 0
TDI
Text Label 10150 7900 2    50   ~ 0
TDO
Text Label 10150 8100 2    50   ~ 0
TXD
$Comp
L power:GND #PWR0216
U 1 1 5CA050BF
P 10150 8000
F 0 "#PWR0216" H 10150 7750 50  0001 C CNN
F 1 "GND" V 10155 7872 50  0000 R CNN
F 2 "" H 10150 8000 50  0001 C CNN
F 3 "" H 10150 8000 50  0001 C CNN
	1    10150 8000
	0    1    1    0   
$EndComp
Text Label 10150 8200 2    50   ~ 0
RXD
Text Label 10150 8500 2    50   ~ 0
W5500_INTN
Text Label 10150 8600 2    50   ~ 0
RESET
Text Label 10150 8900 2    50   ~ 0
SWD_RESET
Text Label 10150 9000 2    50   ~ 0
SWD_IO
Text Label 10150 9100 2    50   ~ 0
SWD_CLK
Wire Wire Line
	10150 8900 9750 8900
Wire Wire Line
	10150 9100 9750 9100
Wire Wire Line
	10150 9000 9750 9000
Wire Wire Line
	10150 8600 9750 8600
Wire Wire Line
	10150 8500 9750 8500
Wire Wire Line
	9750 8200 10150 8200
Wire Wire Line
	9750 8100 10150 8100
Wire Wire Line
	10150 7800 9750 7800
Wire Wire Line
	10150 7900 9750 7900
Wire Wire Line
	10150 7500 9750 7500
Wire Wire Line
	9750 7400 10150 7400
Wire Wire Line
	10150 6800 9800 6800
Wire Wire Line
	10150 6700 9800 6700
Wire Wire Line
	10150 6600 9800 6600
Text Label 10150 6600 2    50   ~ 0
IO11
Wire Wire Line
	6600 5650 6600 6950
$Comp
L Device:R R17
U 1 1 5C9AF775
P 7600 3700
F 0 "R17" V 7515 3625 50  0000 C CNN
F 1 "4k7" V 7515 3795 50  0000 C CNN
F 2 "Resistor_SMD:R_0402_1005Metric" V 7530 3700 50  0001 C CNN
F 3 "~" H 7600 3700 50  0001 C CNN
	1    7600 3700
	1    0    0    1   
$EndComp
Wire Wire Line
	7500 3900 7600 3900
$Comp
L power:+3V3 #PWR0237
U 1 1 5C9E345B
P 7600 3550
F 0 "#PWR0237" H 7600 3400 50  0001 C CNN
F 1 "+3V3" H 7615 3723 50  0000 C CNN
F 2 "" H 7600 3550 50  0001 C CNN
F 3 "" H 7600 3550 50  0001 C CNN
	1    7600 3550
	1    0    0    -1  
$EndComp
Wire Wire Line
	7600 3850 7600 3900
Connection ~ 7600 3900
Wire Wire Line
	7600 3900 7950 3900
$Comp
L Device:LED D2
U 1 1 5CB4C9DF
P 10300 4850
F 0 "D2" V 10339 4733 50  0000 R CNN
F 1 "LED-LOCK" V 10248 4733 50  0000 R CNN
F 2 "LED_SMD:LED_0603_1608Metric" H 10300 4850 50  0001 C CNN
F 3 "~" H 10300 4850 50  0001 C CNN
F 4 "D" H 10300 4850 50  0001 C CNN "Distributor"
F 5 "732-4978-1-ND" H 10300 4850 50  0001 C CNN "OrderNr"
	1    10300 4850
	0    -1   -1   0   
$EndComp
$Comp
L power:GND #PWR0238
U 1 1 5CB8299F
P 10300 5050
F 0 "#PWR0238" H 10300 4800 50  0001 C CNN
F 1 "GND" H 10305 4877 50  0000 C CNN
F 2 "" H 10300 5050 50  0001 C CNN
F 3 "" H 10300 5050 50  0001 C CNN
	1    10300 5050
	1    0    0    -1  
$EndComp
$Comp
L Device:R R18
U 1 1 5CB82A56
P 10300 4500
F 0 "R18" H 10100 4550 50  0000 L CNN
F 1 "680" H 10100 4450 50  0000 L CNN
F 2 "Resistor_SMD:R_0402_1005Metric" V 10230 4500 50  0001 C CNN
F 3 "~" H 10300 4500 50  0001 C CNN
	1    10300 4500
	-1   0    0    1   
$EndComp
Wire Wire Line
	10300 4650 10300 4700
Wire Wire Line
	10300 5000 10300 5050
Wire Wire Line
	10300 4350 10300 4200
Text Label 10300 4300 1    50   ~ 0
LED_LOCKED
$Comp
L Connector_Generic:Conn_02x10_Odd_Even J1
U 1 1 5CC7F2EE
P 8450 8400
F 0 "J1" H 8500 9017 50  0000 C CNN
F 1 "DNP" H 8500 8926 50  0000 C CNN
F 2 "myfootprints:PinHeader_2x10_P1.27mm_Vertical" H 8450 8400 50  0001 C CNN
F 3 "~" H 8450 8400 50  0001 C CNN
	1    8450 8400
	1    0    0    -1  
$EndComp
Wire Wire Line
	5850 3450 5550 3450
Wire Wire Line
	5850 3650 5550 3650
Wire Wire Line
	5850 3550 5550 3550
Wire Wire Line
	5850 3750 5550 3750
Wire Wire Line
	3550 3700 3200 3700
Wire Wire Line
	3550 3600 3200 3600
Wire Wire Line
	3550 3300 3200 3300
Wire Wire Line
	3550 2900 3200 2900
Wire Wire Line
	3550 3200 3200 3200
Wire Wire Line
	3550 3100 3200 3100
Wire Wire Line
	3550 2800 3200 2800
Wire Wire Line
	3550 3900 3200 3900
Wire Wire Line
	3550 3000 3200 3000
Wire Wire Line
	5850 2950 5550 2950
Wire Wire Line
	3550 3400 3200 3400
Wire Wire Line
	3550 3500 3200 3500
Text Label 3450 3900 2    50   ~ 0
SPARE11
Text Label 3450 3700 2    50   ~ 0
SPARE4
Text Label 3450 3600 2    50   ~ 0
SPARE5
Text Label 3450 3500 2    50   ~ 0
SPARE14
Text Label 3450 3400 2    50   ~ 0
SPARE15
Text Label 3450 3300 2    50   ~ 0
SPARE6
Text Label 3450 3200 2    50   ~ 0
SPARE8
Text Label 3450 3100 2    50   ~ 0
SPARE9
Text Label 3450 3000 2    50   ~ 0
SPARE12
Text Label 3450 2900 2    50   ~ 0
SPARE7
Text Label 3450 2800 2    50   ~ 0
SPARE10
Text Label 5750 2950 2    50   ~ 0
SPARE13
Text Label 5750 3450 2    50   ~ 0
SPARE0
Text Label 5750 3550 2    50   ~ 0
SPARE2
Text Label 5750 3650 2    50   ~ 0
SPARE1
Text Label 5750 3750 2    50   ~ 0
SPARE3
Wire Wire Line
	8250 8000 8000 8000
Wire Wire Line
	8250 8100 8000 8100
Wire Wire Line
	8250 8200 8000 8200
Wire Wire Line
	8250 8300 8000 8300
Wire Wire Line
	8250 8400 8000 8400
Wire Wire Line
	8250 8500 8000 8500
Wire Wire Line
	8250 8600 8000 8600
Wire Wire Line
	8250 8700 8000 8700
Wire Wire Line
	8750 8700 8950 8700
Wire Wire Line
	8750 8600 8950 8600
Wire Wire Line
	8750 8500 8950 8500
Wire Wire Line
	8750 8400 8950 8400
Wire Wire Line
	8750 8300 8950 8300
Wire Wire Line
	8750 8200 8950 8200
Wire Wire Line
	8750 8100 8950 8100
Wire Wire Line
	8750 8000 8950 8000
Text Label 8250 8000 2    50   ~ 0
SPARE0
Text Label 8250 8100 2    50   ~ 0
SPARE2
Text Label 8250 8200 2    50   ~ 0
SPARE4
Text Label 8250 8300 2    50   ~ 0
SPARE6
Text Label 8250 8400 2    50   ~ 0
SPARE8
Text Label 8250 8500 2    50   ~ 0
SPARE10
Text Label 8250 8600 2    50   ~ 0
SPARE12
Text Label 8250 8700 2    50   ~ 0
SPARE14
Text Label 8750 8700 0    50   ~ 0
SPARE15
Text Label 8750 8600 0    50   ~ 0
SPARE13
Text Label 8750 8500 0    50   ~ 0
SPARE11
Text Label 8750 8400 0    50   ~ 0
SPARE9
Text Label 8750 8300 0    50   ~ 0
SPARE7
Text Label 8750 8200 0    50   ~ 0
SPARE5
Text Label 8750 8100 0    50   ~ 0
SPARE3
Text Label 8750 8000 0    50   ~ 0
SPARE1
$Comp
L power:GND #PWR0239
U 1 1 5D3FC5ED
P 8200 8950
F 0 "#PWR0239" H 8200 8700 50  0001 C CNN
F 1 "GND" H 8205 8777 50  0000 C CNN
F 2 "" H 8200 8950 50  0001 C CNN
F 3 "" H 8200 8950 50  0001 C CNN
	1    8200 8950
	1    0    0    -1  
$EndComp
Wire Wire Line
	8250 8800 8200 8800
Wire Wire Line
	8200 8800 8200 8900
Wire Wire Line
	8250 8900 8200 8900
Connection ~ 8200 8900
Wire Wire Line
	8200 8900 8200 8950
$Comp
L power:+3V3 #PWR0240
U 1 1 5D477C1B
P 8850 8800
F 0 "#PWR0240" H 8850 8650 50  0001 C CNN
F 1 "+3V3" V 8865 8928 50  0000 L CNN
F 2 "" H 8850 8800 50  0001 C CNN
F 3 "" H 8850 8800 50  0001 C CNN
	1    8850 8800
	0    1    1    0   
$EndComp
Wire Wire Line
	8750 8800 8800 8800
Wire Wire Line
	8750 8900 8800 8900
Wire Wire Line
	8800 8900 8800 8800
Connection ~ 8800 8800
Wire Wire Line
	8800 8800 8850 8800
Wire Wire Line
	3550 2200 3150 2200
Text Label 3150 2200 0    50   ~ 0
LED_LOCKED
Wire Wire Line
	3550 2300 3150 2300
Wire Wire Line
	3550 2400 3150 2400
Text Label 3150 2400 0    50   ~ 0
BTN2
$Comp
L Device:LED D3
U 1 1 5D701A3C
P 9900 4850
F 0 "D3" V 9939 4732 50  0000 R CNN
F 1 "LED-USER" V 9848 4732 50  0000 R CNN
F 2 "LED_SMD:LED_0603_1608Metric" H 9900 4850 50  0001 C CNN
F 3 "~" H 9900 4850 50  0001 C CNN
F 4 "D" H 9900 4850 50  0001 C CNN "Distributor"
F 5 "732-4978-1-ND" H 9900 4850 50  0001 C CNN "OrderNr"
	1    9900 4850
	0    -1   -1   0   
$EndComp
$Comp
L power:GND #PWR0245
U 1 1 5D701A46
P 9900 5050
F 0 "#PWR0245" H 9900 4800 50  0001 C CNN
F 1 "GND" H 9905 4877 50  0000 C CNN
F 2 "" H 9900 5050 50  0001 C CNN
F 3 "" H 9900 5050 50  0001 C CNN
	1    9900 5050
	1    0    0    -1  
$EndComp
$Comp
L Device:R R21
U 1 1 5D701A50
P 9900 4500
F 0 "R21" H 9700 4550 50  0000 L CNN
F 1 "680" H 9700 4450 50  0000 L CNN
F 2 "Resistor_SMD:R_0402_1005Metric" V 9830 4500 50  0001 C CNN
F 3 "~" H 9900 4500 50  0001 C CNN
	1    9900 4500
	-1   0    0    1   
$EndComp
Wire Wire Line
	9900 4650 9900 4700
Wire Wire Line
	9900 5000 9900 5050
Wire Wire Line
	9900 4350 9900 4200
Text Label 9900 4300 1    50   ~ 0
LED_USER
Text Label 3150 2300 0    50   ~ 0
LED_USER
$Comp
L Device:LED D4
U 1 1 5D755E99
P 9550 4850
F 0 "D4" V 9589 4733 50  0000 R CNN
F 1 "LED-3V3" V 9498 4733 50  0000 R CNN
F 2 "LED_SMD:LED_0603_1608Metric" H 9550 4850 50  0001 C CNN
F 3 "~" H 9550 4850 50  0001 C CNN
F 4 "D" H 9550 4850 50  0001 C CNN "Distributor"
F 5 "732-4978-1-ND" H 9550 4850 50  0001 C CNN "OrderNr"
	1    9550 4850
	0    -1   -1   0   
$EndComp
$Comp
L power:GND #PWR0246
U 1 1 5D755EA3
P 9550 5050
F 0 "#PWR0246" H 9550 4800 50  0001 C CNN
F 1 "GND" H 9555 4877 50  0000 C CNN
F 2 "" H 9550 5050 50  0001 C CNN
F 3 "" H 9550 5050 50  0001 C CNN
	1    9550 5050
	1    0    0    -1  
$EndComp
$Comp
L Device:R R22
U 1 1 5D755EAD
P 9550 4500
F 0 "R22" H 9350 4550 50  0000 L CNN
F 1 "680" H 9350 4450 50  0000 L CNN
F 2 "Resistor_SMD:R_0402_1005Metric" V 9480 4500 50  0001 C CNN
F 3 "~" H 9550 4500 50  0001 C CNN
	1    9550 4500
	-1   0    0    1   
$EndComp
Wire Wire Line
	9550 4650 9550 4700
Wire Wire Line
	9550 5000 9550 5050
$Comp
L power:+3V3 #PWR0247
U 1 1 5D799B6B
P 9550 4250
F 0 "#PWR0247" H 9550 4100 50  0001 C CNN
F 1 "+3V3" H 9565 4423 50  0000 C CNN
F 2 "" H 9550 4250 50  0001 C CNN
F 3 "" H 9550 4250 50  0001 C CNN
	1    9550 4250
	1    0    0    -1  
$EndComp
Wire Wire Line
	9550 4250 9550 4350
Wire Wire Line
	6700 7050 7050 7050
Connection ~ 6700 7050
Text Label 6950 7050 0    50   ~ 0
INIT
Text Label 10150 6500 2    50   ~ 0
INIT
Wire Wire Line
	10150 6500 9800 6500
$Comp
L Device:R R20
U 1 1 5DD7C0AF
P 7700 6750
F 0 "R20" V 7615 6675 50  0000 C CNN
F 1 "0" V 7615 6845 50  0000 C CNN
F 2 "Resistor_SMD:R_0402_1005Metric" V 7630 6750 50  0001 C CNN
F 3 "~" H 7700 6750 50  0001 C CNN
	1    7700 6750
	-1   0    0    1   
$EndComp
$Comp
L Device:R R19
U 1 1 5DD7C658
P 7700 6350
F 0 "R19" V 7615 6275 50  0000 C CNN
F 1 "DNP" V 7615 6445 50  0000 C CNN
F 2 "Resistor_SMD:R_0402_1005Metric" V 7630 6350 50  0001 C CNN
F 3 "~" H 7700 6350 50  0001 C CNN
	1    7700 6350
	-1   0    0    1   
$EndComp
Wire Wire Line
	7700 6550 7700 6600
Wire Wire Line
	5850 6550 7700 6550
Wire Wire Line
	7700 6550 7700 6500
Connection ~ 7700 6550
Wire Wire Line
	7700 6100 7700 6200
Wire Wire Line
	7700 6900 7700 7000
$EndSCHEMATC
